%YAML 1.1
%TAG !u! tag:unity3d.com,2011:
--- !u!74 &7400000
AnimationClip:
  m_ObjectHideFlags: 0
  m_PrefabParentObject: {fileID: 0}
  m_PrefabInternal: {fileID: 0}
  m_Name: Take 001
  serializedVersion: 4
  m_AnimationType: 1
  m_Compressed: 0
  m_UseHighQualityCurve: 1
  m_RotationCurves:
  - curve:
      serializedVersion: 2
      m_Curve:
      - time: 0
        value: {x: -.0555903651, y: .0621698126, z: .720003247, w: .688941181}
        inSlope: {x: -.0238653999, y: -.00920735206, z: -.0987946913, w: .101652138}
        outSlope: {x: -.0238653999, y: -.00920735206, z: -.0987946913, w: .101652138}
        tangentMode: 0
      - time: .13333334
        value: {x: -.0495958589, y: .0459825024, z: .679275632, w: .730760276}
        inSlope: {x: .293213189, y: -.367000222, z: -.417221218, w: .429365367}
        outSlope: {x: .293213189, y: -.367000222, z: -.417221218, w: .429365367}
        tangentMode: 0
      - time: .266666681
        value: {x: .0252232086, y: -.0196765885, z: .667822778, w: .743632555}
        inSlope: {x: .598973513, y: -.303713739, z: .323803455, w: -.318806499}
        outSlope: {x: .598973513, y: -.303713739, z: .323803455, w: -.318806499}
        tangentMode: 0
      - time: .433333367
        value: {x: .0631402433, y: .00728977751, z: .736497223, w: .673447847}
        inSlope: {x: -.22571367, y: .354695082, z: .261122018, w: -.267469019}
        outSlope: {x: -.22571367, y: .354695082, z: .261122018, w: -.267469019}
        tangentMode: 0
      - time: .666666687
        value: {x: .00220807618, y: .0619969778, z: .735614955, w: .674553275}
        inSlope: {x: -.10583172, y: .0745612383, z: -.0765207559, w: .0772601515}
        outSlope: {x: -.10583172, y: .0745612383, z: -.0765207559, w: .0772601515}
        tangentMode: -1
      - time: 1.03333342
        value: {x: .0266540814, y: .0283384118, z: .759269357, w: .649612606}
        inSlope: {x: .251037061, y: -.300371289, z: .0572847426, w: -.0645740926}
        outSlope: {x: .251037061, y: -.300371289, z: .0572847426, w: -.0645740926}
        tangentMode: 0
      - time: 1.30000007
        value: {x: .0906965286, y: -.05118379, z: .703005373, w: .703518152}
        inSlope: {x: .01999164, y: -.081651777, z: -.451031744, w: .44199717}
        outSlope: {x: .01999164, y: -.081651777, z: -.451031744, w: .44199717}
        tangentMode: 0
      - time: 1.56666672
        value: {x: .0153450128, y: .00933811255, z: .623472035, w: .781639278}
        inSlope: {x: -.403505832, y: .356674284, z: -.0111374855, w: .0124660693}
        outSlope: {x: -.403505832, y: .356674284, z: -.0111374855, w: .0124660693}
        tangentMode: 1019215872
      - time: 1.80000007
        value: {x: -.0588610992, y: .0712423548, z: .680783868, w: .726631403}
        inSlope: {x: -.0854324102, y: .0360179655, z: .355917871, w: -.343264967}
        outSlope: {x: -.0854324102, y: .0360179655, z: .355917871, w: -.343264967}
        tangentMode: 1073741824
      - time: 2
        value: {x: -.0555903651, y: .0621698126, z: .720003247, w: .688941181}
        inSlope: {x: .0151716489, y: -.0211683121, z: .0350101404, w: -.033381138}
        outSlope: {x: .0151716489, y: -.0211683121, z: .0350101404, w: -.033381138}
        tangentMode: 1091567616
      m_PreInfinity: 2
      m_PostInfinity: 2
    path: Bone001
  - curve:
      serializedVersion: 2
      m_Curve:
      - time: 0
        value: {x: -.00111939758, y: .0726764873, z: .0298674535, w: .996907651}
        inSlope: {x: .018000301, y: .010418593, z: .0194068979, w: -.00133395183}
        outSlope: {x: .018000301, y: .010418593, z: .0194068979, w: -.00133395183}
        tangentMode: 1065353216
      - time: .400000036
        value: {x: .0328711569, y: .0957312211, z: .0557630844, w: .993300319}
        inSlope: {x: .079347983, y: .0680175573, z: .00915957149, w: -.00970154628}
        outSlope: {x: .079347983, y: .0680175573, z: .00915957149, w: -.00970154628}
        tangentMode: 0
      - time: .933333397
        value: {x: .0491469502, y: .109285995, z: .0440626591, w: .991816342}
        inSlope: {x: -.0225637518, y: -.0353026837, z: -.0987292752, w: .00937163923}
        outSlope: {x: -.0225637518, y: -.0353026837, z: -.0987292752, w: .00937163923}
        tangentMode: 0
      - time: 1.73333347
        value: {x: .0114979316, y: .0764815137, z: -.00327320443, w: .996999323}
        inSlope: {x: -.071658574, y: -.0230096448, z: .161725163, w: .0030916892}
        outSlope: {x: -.071658574, y: -.0230096448, z: .161725163, w: .0030916892}
        tangentMode: -788529152
      - time: 2
        value: {x: -.00111939758, y: .0726764873, z: .0298674535, w: .996907651}
        inSlope: {x: -.00838303752, y: -.00242495141, z: .0248933043, w: -.000566842733}
        outSlope: {x: -.00838303752, y: -.00242495141, z: .0248933043, w: -.000566842733}
        tangentMode: 1091567616
      m_PreInfinity: 2
      m_PostInfinity: 2
    path: Bone001/Bone002
  - curve:
      serializedVersion: 2
      m_Curve:
      - time: 0
        value: {x: -.00274289446, y: .0847845748, z: .0172799435, w: .996245682}
        inSlope: {x: .0207735617, y: .0296665709, z: .0182123091, w: -.00281095481}
        outSlope: {x: .0207735617, y: .0296665709, z: .0182123091, w: -.00281095481}
        tangentMode: 1065353216
      - time: .366666675
        value: {x: .0357336327, y: .142764777, z: .0349646993, w: .988493204}
        inSlope: {x: .114302009, y: .175694466, z: -.0260766484, w: -.0286629684}
        outSlope: {x: .114302009, y: .175694466, z: -.0260766484, w: -.0286629684}
        tangentMode: 1065353216
      - time: .76666671
        value: {x: .0706880018, y: .197696328, z: .0227835104, w: .977445841}
        inSlope: {x: -.00117815938, y: -.0183847398, z: -.0248655658, w: .0043711029}
        outSlope: {x: -.00117815938, y: -.0183847398, z: -.0248655658, w: .0043711029}
        tangentMode: 0
      - time: 1.60000014
        value: {x: .0346684791, y: .108004011, z: -.0338436365, w: .992969215}
        inSlope: {x: -.0865454972, y: -.0845997036, z: .0573077053, w: .0141075142}
        outSlope: {x: -.0865454972, y: -.0845997036, z: .0573077053, w: .0141075142}
        tangentMode: 776892432
      - time: 2
        value: {x: -.00274289446, y: .0847845748, z: .0172799435, w: .996245682}
        inSlope: {x: -.0151629103, y: -.00779364072, z: .0256351046, w: .000191331783}
        outSlope: {x: -.0151629103, y: -.00779364072, z: .0256351046, w: .000191331783}
        tangentMode: 1091567616
      m_PreInfinity: 2
      m_PostInfinity: 2
    path: Bone001/Bone002/Bone003
  - curve:
      serializedVersion: 2
      m_Curve:
      - time: 0
        value: {x: .00558525464, y: -.0131989187, z: .0076290397, w: .999868214}
        inSlope: {x: .0246601999, y: .0411305837, z: .0183266383, w: .000221729264}
        outSlope: {x: .0246601999, y: .0411305837, z: .0183266383, w: .000221729264}
        tangentMode: 1065353216
      - time: .366666675
        value: {x: .0533624366, y: .066321522, z: .0321346335, w: .995852053}
        inSlope: {x: .157347322, y: .236696303, z: .0171148926, w: -.0248926766}
        outSlope: {x: .157347322, y: .236696303, z: .0171148926, w: -.0248926766}
        tangentMode: 1065353216
      - time: .76666671
        value: {x: .105177857, y: .139469579, z: .0262500588, w: .984274745}
        inSlope: {x: -.00411450537, y: -.0243537668, z: -.0170615464, w: .00433086976}
        outSlope: {x: -.00411450537, y: -.0243537668, z: -.0170615464, w: .00433086976}
        tangentMode: 0
      - time: 1.50000012
        value: {x: .0653342381, y: .0294280499, z: -.0356392786, w: .996792495}
        inSlope: {x: -.0903638825, y: -.141809076, z: -.0290849954, w: .00910787936}
        outSlope: {x: -.0903638825, y: -.141809076, z: -.0290849954, w: .00910787936}
        tangentMode: 0
      - time: 1.9333334
        value: {x: .00819918327, y: -.0119209886, z: .00493449159, w: .999883175}
        inSlope: {x: -.0738657415, y: -.0366209783, z: .0751858801, w: -.000113546441}
        outSlope: {x: -.0738657415, y: -.0366209783, z: .0751858801, w: -.000113546441}
        tangentMode: -788529152
      - time: 2
        value: {x: .00558525464, y: -.0131989187, z: .0076290397, w: .999868214}
        inSlope: {x: -.0205230005, y: -.00991365686, z: .0213455912, w: -.000162721422}
        outSlope: {x: -.0205230005, y: -.00991365686, z: .0213455912, w: -.000162721422}
        tangentMode: 1091567616
      m_PreInfinity: 2
      m_PostInfinity: 2
    path: Bone001/Bone002/Bone003/Bone004
  m_CompressedRotationCurves: []
  m_PositionCurves:
  - curve:
      serializedVersion: 2
      m_Curve:
      - time: 0
        value: {x: -0, y: .199999988, z: 8.74227801e-09}
        inSlope: {x: 0, y: 0, z: 0}
        outSlope: {x: 0, y: 0, z: 0}
        tangentMode: -1139352977
      - time: 2
        value: {x: -0, y: .199999988, z: 8.74227801e-09}
        inSlope: {x: 0, y: 0, z: 0}
        outSlope: {x: 0, y: 0, z: 0}
        tangentMode: 1011629692
      m_PreInfinity: 2
      m_PostInfinity: 2
    path: Bone001
  - curve:
      serializedVersion: 2
      m_Curve:
      - time: 0
        value: {x: -.099999994, y: 4.37113856e-09, z: -4.371143e-09}
        inSlope: {x: 0, y: 0, z: 0}
        outSlope: {x: 0, y: 0, z: 0}
        tangentMode: 1009431231
      - time: 2
        value: {x: -.099999994, y: 4.37113856e-09, z: -4.371143e-09}
        inSlope: {x: 0, y: 0, z: 0}
        outSlope: {x: 0, y: 0, z: 0}
        tangentMode: 997207281
      m_PreInfinity: 2
      m_PostInfinity: 2
    path: Bone001/Bone002
  - curve:
      serializedVersion: 2
      m_Curve:
      - time: 0
        value: {x: -.099999994, y: -1.91049009e-16, z: -5.68434176e-16}
        inSlope: {x: 0, y: 0, z: 0}
        outSlope: {x: 0, y: 0, z: 0}
        tangentMode: 1022560079
      - time: 2
        value: {x: -.099999994, y: -1.91049009e-16, z: -5.68434176e-16}
        inSlope: {x: 0, y: 0, z: 0}
        outSlope: {x: 0, y: 0, z: 0}
        tangentMode: 1012349620
      m_PreInfinity: 2
      m_PostInfinity: 2
    path: Bone001/Bone002/Bone003
  - curve:
      serializedVersion: 2
      m_Curve:
      - time: 0
        value: {x: -.099999994, y: -1.7484556e-08, z: 8.63422802e-28}
        inSlope: {x: 0, y: 0, z: 0}
        outSlope: {x: 0, y: 0, z: 0}
        tangentMode: -1139352977
      - time: 2
        value: {x: -.099999994, y: -1.7484556e-08, z: 8.63422802e-28}
        inSlope: {x: 0, y: 0, z: 0}
        outSlope: {x: 0, y: 0, z: 0}
        tangentMode: 1011629692
      m_PreInfinity: 2
      m_PostInfinity: 2
    path: Bone001/Bone002/Bone003/Bone004
  m_ScaleCurves:
  - curve:
      serializedVersion: 2
      m_Curve:
      - time: 0
        value: {x: 1, y: 1, z: 1}
        inSlope: {x: 0, y: 0, z: 0}
        outSlope: {x: 0, y: 0, z: 0}
        tangentMode: -1139352977
      - time: 2
        value: {x: 1, y: 1, z: 1}
        inSlope: {x: 0, y: 0, z: 0}
        outSlope: {x: 0, y: 0, z: 0}
        tangentMode: 1011629692
      m_PreInfinity: 2
      m_PostInfinity: 2
    path: Bone001
  - curve:
      serializedVersion: 2
      m_Curve:
      - time: 0
        value: {x: 1, y: 1, z: 1}
        inSlope: {x: 0, y: 0, z: 0}
        outSlope: {x: 0, y: 0, z: 0}
        tangentMode: 1009431231
      - time: 2
        value: {x: 1, y: 1, z: 1}
        inSlope: {x: 0, y: 0, z: 0}
        outSlope: {x: 0, y: 0, z: 0}
        tangentMode: 997207281
      m_PreInfinity: 2
      m_PostInfinity: 2
    path: Bone001/Bone002
  - curve:
      serializedVersion: 2
      m_Curve:
      - time: 0
        value: {x: 1, y: 1, z: 1}
        inSlope: {x: 0, y: 0, z: 0}
        outSlope: {x: 0, y: 0, z: 0}
        tangentMode: 1022560079
      - time: 2
        value: {x: 1, y: 1, z: 1}
        inSlope: {x: 0, y: 0, z: 0}
        outSlope: {x: 0, y: 0, z: 0}
        tangentMode: 1012349620
      m_PreInfinity: 2
      m_PostInfinity: 2
    path: Bone001/Bone002/Bone003
  - curve:
      serializedVersion: 2
      m_Curve:
      - time: 0
        value: {x: 1, y: 1, z: 1}
        inSlope: {x: 0, y: 0, z: 0}
        outSlope: {x: 0, y: 0, z: 0}
        tangentMode: -1139352977
      - time: 2
        value: {x: 1, y: 1, z: 1}
        inSlope: {x: 0, y: 0, z: 0}
        outSlope: {x: 0, y: 0, z: 0}
        tangentMode: 1011629692
      m_PreInfinity: 2
      m_PostInfinity: 2
    path: Bone001/Bone002/Bone003/Bone004
  m_FloatCurves: []
  m_PPtrCurves: []
  m_SampleRate: 30
  m_WrapMode: 2
  m_Bounds:
    m_Center: {x: .00586113334, y: .00339087844, z: .0895783454}
    m_Extent: {x: .200244993, y: .21884805, z: .136318922}
  m_ClipBindingConstant:
    genericBindings: []
    pptrCurveMapping: []
  m_AnimationClipSettings:
    serializedVersion: 2
    m_StartTime: 0
    m_StopTime: 2
    m_OrientationOffsetY: 0
    m_Level: 0
    m_CycleOffset: 0
    m_LoopTime: 0
    m_LoopBlend: 0
    m_LoopBlendOrientation: 0
    m_LoopBlendPositionY: 0
    m_LoopBlendPositionXZ: 0
    m_KeepOriginalOrientation: 0
    m_KeepOriginalPositionY: 1
    m_KeepOriginalPositionXZ: 0
    m_HeightFromFeet: 0
    m_Mirror: 0
  m_EditorCurves: []
  m_EulerEditorCurves: []
  m_Events: []
