﻿[
        {
            field_id:1,
            wave_id:1,
            event_active_wave:'false',
            event_occurs_condition:0,
            event_strory_conversation_id:0,
            event_move_point:0,
            event_avtive_monster_hp_rate:0,
            event_avtive_time:0,
            start_time:0,
            repeat_time:0,
            wave_count:1,
            monster_id:5,
            start_point_id:16,
            monster_ai_mode:0,
            defeat_monster:'false',
            event_active_wave_id01:0,
            event_active_wave_id02:0,
            event_active_wave_id03:0,
            event_active_wave_id04:0,
            event_active_wave_id05:0,
            event_active_wave_id06:0,
            event_active_wave_id07:0,
            event_active_wave_id08:0,
            event_active_wave_id09:0,
            event_active_wave_id10:0
        },
        {
            field_id:1,
            wave_id:2,
            event_active_wave:'false',
            event_occurs_condition:0,
            event_strory_conversation_id:0,
            event_move_point:0,
            event_avtive_monster_hp_rate:0,
            event_avtive_time:0,
            start_time:0,
            repeat_time:0,
            wave_count:1,
            monster_id:7,
            start_point_id:25,
            monster_ai_mode:0,
            defeat_monster:'false',
            event_active_wave_id01:0,
            event_active_wave_id02:0,
            event_active_wave_id03:0,
            event_active_wave_id04:0,
            event_active_wave_id05:0,
            event_active_wave_id06:0,
            event_active_wave_id07:0,
            event_active_wave_id08:0,
            event_active_wave_id09:0,
            event_active_wave_id10:0
        },
        {
            field_id:1,
            wave_id:3,
            event_active_wave:'false',
            event_occurs_condition:0,
            event_strory_conversation_id:0,
            event_move_point:0,
            event_avtive_monster_hp_rate:0,
            event_avtive_time:0,
            start_time:0,
            repeat_time:0,
            wave_count:1,
            monster_id:5,
            start_point_id:34,
            monster_ai_mode:0,
            defeat_monster:'false',
            event_active_wave_id01:0,
            event_active_wave_id02:0,
            event_active_wave_id03:0,
            event_active_wave_id04:0,
            event_active_wave_id05:0,
            event_active_wave_id06:0,
            event_active_wave_id07:0,
            event_active_wave_id08:0,
            event_active_wave_id09:0,
            event_active_wave_id10:0
        },
        {
            field_id:1,
            wave_id:4,
            event_active_wave:'false',
            event_occurs_condition:0,
            event_strory_conversation_id:0,
            event_move_point:0,
            event_avtive_monster_hp_rate:0,
            event_avtive_time:0,
            start_time:10,
            repeat_time:0,
            wave_count:1,
            monster_id:13,
            start_point_id:1,
            monster_ai_mode:0,
            defeat_monster:'false',
            event_active_wave_id01:0,
            event_active_wave_id02:0,
            event_active_wave_id03:0,
            event_active_wave_id04:0,
            event_active_wave_id05:0,
            event_active_wave_id06:0,
            event_active_wave_id07:0,
            event_active_wave_id08:0,
            event_active_wave_id09:0,
            event_active_wave_id10:0
        },
        {
            field_id:1,
            wave_id:5,
            event_active_wave:'false',
            event_occurs_condition:0,
            event_strory_conversation_id:0,
            event_move_point:0,
            event_avtive_monster_hp_rate:0,
            event_avtive_time:0,
            start_time:11,
            repeat_time:0,
            wave_count:1,
            monster_id:10,
            start_point_id:19,
            monster_ai_mode:0,
            defeat_monster:'false',
            event_active_wave_id01:0,
            event_active_wave_id02:0,
            event_active_wave_id03:0,
            event_active_wave_id04:0,
            event_active_wave_id05:0,
            event_active_wave_id06:0,
            event_active_wave_id07:0,
            event_active_wave_id08:0,
            event_active_wave_id09:0,
            event_active_wave_id10:0
        },
        {
            field_id:1,
            wave_id:6,
            event_active_wave:'false',
            event_occurs_condition:0,
            event_strory_conversation_id:0,
            event_move_point:0,
            event_avtive_monster_hp_rate:0,
            event_avtive_time:0,
            start_time:12,
            repeat_time:0,
            wave_count:1,
            monster_id:13,
            start_point_id:37,
            monster_ai_mode:0,
            defeat_monster:'false',
            event_active_wave_id01:0,
            event_active_wave_id02:0,
            event_active_wave_id03:0,
            event_active_wave_id04:0,
            event_active_wave_id05:0,
            event_active_wave_id06:0,
            event_active_wave_id07:0,
            event_active_wave_id08:0,
            event_active_wave_id09:0,
            event_active_wave_id10:0
        },
        {
            field_id:1,
            wave_id:7,
            event_active_wave:'false',
            event_occurs_condition:0,
            event_strory_conversation_id:0,
            event_move_point:0,
            event_avtive_monster_hp_rate:0,
            event_avtive_time:0,
            start_time:20,
            repeat_time:0,
            wave_count:1,
            monster_id:9,
            start_point_id:27,
            monster_ai_mode:0,
            defeat_monster:'false',
            event_active_wave_id01:0,
            event_active_wave_id02:0,
            event_active_wave_id03:0,
            event_active_wave_id04:0,
            event_active_wave_id05:0,
            event_active_wave_id06:0,
            event_active_wave_id07:0,
            event_active_wave_id08:0,
            event_active_wave_id09:0,
            event_active_wave_id10:0
        },
        {
            field_id:1,
            wave_id:8,
            event_active_wave:'false',
            event_occurs_condition:2,
            event_strory_conversation_id:3,
            event_move_point:0,
            event_avtive_monster_hp_rate:0,
            event_avtive_time:0,
            start_time:21,
            repeat_time:0,
            wave_count:1,
            monster_id:14,
            start_point_id:36,
            monster_ai_mode:0,
            defeat_monster:'true',
            event_active_wave_id01:0,
            event_active_wave_id02:0,
            event_active_wave_id03:0,
            event_active_wave_id04:0,
            event_active_wave_id05:0,
            event_active_wave_id06:0,
            event_active_wave_id07:0,
            event_active_wave_id08:0,
            event_active_wave_id09:0,
            event_active_wave_id10:0
        },
        {
            field_id:1,
            wave_id:9,
            event_active_wave:'false',
            event_occurs_condition:0,
            event_strory_conversation_id:0,
            event_move_point:0,
            event_avtive_monster_hp_rate:0,
            event_avtive_time:0,
            start_time:22,
            repeat_time:0,
            wave_count:1,
            monster_id:9,
            start_point_id:45,
            monster_ai_mode:0,
            defeat_monster:'false',
            event_active_wave_id01:0,
            event_active_wave_id02:0,
            event_active_wave_id03:0,
            event_active_wave_id04:0,
            event_active_wave_id05:0,
            event_active_wave_id06:0,
            event_active_wave_id07:0,
            event_active_wave_id08:0,
            event_active_wave_id09:0,
            event_active_wave_id10:0
        },
        {
            field_id:1,
            wave_id:10,
            event_active_wave:'false',
            event_occurs_condition:0,
            event_strory_conversation_id:0,
            event_move_point:0,
            event_avtive_monster_hp_rate:0,
            event_avtive_time:0,
            start_time:30,
            repeat_time:0,
            wave_count:1,
            monster_id:7,
            start_point_id:10,
            monster_ai_mode:0,
            defeat_monster:'false',
            event_active_wave_id01:0,
            event_active_wave_id02:0,
            event_active_wave_id03:0,
            event_active_wave_id04:0,
            event_active_wave_id05:0,
            event_active_wave_id06:0,
            event_active_wave_id07:0,
            event_active_wave_id08:0,
            event_active_wave_id09:0,
            event_active_wave_id10:0
        },
        {
            field_id:1,
            wave_id:11,
            event_active_wave:'false',
            event_occurs_condition:4,
            event_strory_conversation_id:0,
            event_move_point:0,
            event_avtive_monster_hp_rate:0,
            event_avtive_time:5,
            start_time:31,
            repeat_time:0,
            wave_count:1,
            monster_id:12,
            start_point_id:28,
            monster_ai_mode:0,
            defeat_monster:'false',
            event_active_wave_id01:26,
            event_active_wave_id02:27,
            event_active_wave_id03:0,
            event_active_wave_id04:0,
            event_active_wave_id05:0,
            event_active_wave_id06:0,
            event_active_wave_id07:0,
            event_active_wave_id08:0,
            event_active_wave_id09:0,
            event_active_wave_id10:0
        },
        {
            field_id:1,
            wave_id:12,
            event_active_wave:'false',
            event_occurs_condition:0,
            event_strory_conversation_id:0,
            event_move_point:0,
            event_avtive_monster_hp_rate:0,
            event_avtive_time:0,
            start_time:32,
            repeat_time:0,
            wave_count:1,
            monster_id:10,
            start_point_id:45,
            monster_ai_mode:0,
            defeat_monster:'false',
            event_active_wave_id01:0,
            event_active_wave_id02:0,
            event_active_wave_id03:0,
            event_active_wave_id04:0,
            event_active_wave_id05:0,
            event_active_wave_id06:0,
            event_active_wave_id07:0,
            event_active_wave_id08:0,
            event_active_wave_id09:0,
            event_active_wave_id10:0
        },
        {
            field_id:1,
            wave_id:13,
            event_active_wave:'false',
            event_occurs_condition:0,
            event_strory_conversation_id:0,
            event_move_point:0,
            event_avtive_monster_hp_rate:0,
            event_avtive_time:0,
            start_time:40,
            repeat_time:10,
            wave_count:2,
            monster_id:13,
            start_point_id:10,
            monster_ai_mode:0,
            defeat_monster:'false',
            event_active_wave_id01:0,
            event_active_wave_id02:0,
            event_active_wave_id03:0,
            event_active_wave_id04:0,
            event_active_wave_id05:0,
            event_active_wave_id06:0,
            event_active_wave_id07:0,
            event_active_wave_id08:0,
            event_active_wave_id09:0,
            event_active_wave_id10:0
        },
        {
            field_id:1,
            wave_id:14,
            event_active_wave:'false',
            event_occurs_condition:0,
            event_strory_conversation_id:0,
            event_move_point:0,
            event_avtive_monster_hp_rate:0,
            event_avtive_time:0,
            start_time:41,
            repeat_time:10,
            wave_count:2,
            monster_id:10,
            start_point_id:27,
            monster_ai_mode:0,
            defeat_monster:'false',
            event_active_wave_id01:0,
            event_active_wave_id02:0,
            event_active_wave_id03:0,
            event_active_wave_id04:0,
            event_active_wave_id05:0,
            event_active_wave_id06:0,
            event_active_wave_id07:0,
            event_active_wave_id08:0,
            event_active_wave_id09:0,
            event_active_wave_id10:0
        },
        {
            field_id:1,
            wave_id:15,
            event_active_wave:'false',
            event_occurs_condition:0,
            event_strory_conversation_id:0,
            event_move_point:0,
            event_avtive_monster_hp_rate:0,
            event_avtive_time:0,
            start_time:42,
            repeat_time:10,
            wave_count:2,
            monster_id:13,
            start_point_id:28,
            monster_ai_mode:0,
            defeat_monster:'false',
            event_active_wave_id01:0,
            event_active_wave_id02:0,
            event_active_wave_id03:0,
            event_active_wave_id04:0,
            event_active_wave_id05:0,
            event_active_wave_id06:0,
            event_active_wave_id07:0,
            event_active_wave_id08:0,
            event_active_wave_id09:0,
            event_active_wave_id10:0
        },
        {
            field_id:1,
            wave_id:16,
            event_active_wave:'false',
            event_occurs_condition:0,
            event_strory_conversation_id:0,
            event_move_point:0,
            event_avtive_monster_hp_rate:0,
            event_avtive_time:0,
            start_time:60,
            repeat_time:0,
            wave_count:1,
            monster_id:5,
            start_point_id:19,
            monster_ai_mode:0,
            defeat_monster:'false',
            event_active_wave_id01:0,
            event_active_wave_id02:0,
            event_active_wave_id03:0,
            event_active_wave_id04:0,
            event_active_wave_id05:0,
            event_active_wave_id06:0,
            event_active_wave_id07:0,
            event_active_wave_id08:0,
            event_active_wave_id09:0,
            event_active_wave_id10:0
        },
        {
            field_id:1,
            wave_id:17,
            event_active_wave:'false',
            event_occurs_condition:4,
            event_strory_conversation_id:4,
            event_move_point:0,
            event_avtive_monster_hp_rate:0,
            event_avtive_time:5,
            start_time:61,
            repeat_time:0,
            wave_count:1,
            monster_id:5,
            start_point_id:28,
            monster_ai_mode:0,
            defeat_monster:'false',
            event_active_wave_id01:26,
            event_active_wave_id02:27,
            event_active_wave_id03:0,
            event_active_wave_id04:0,
            event_active_wave_id05:0,
            event_active_wave_id06:0,
            event_active_wave_id07:0,
            event_active_wave_id08:0,
            event_active_wave_id09:0,
            event_active_wave_id10:0
        },
        {
            field_id:1,
            wave_id:18,
            event_active_wave:'false',
            event_occurs_condition:0,
            event_strory_conversation_id:0,
            event_move_point:0,
            event_avtive_monster_hp_rate:0,
            event_avtive_time:0,
            start_time:62,
            repeat_time:0,
            wave_count:1,
            monster_id:9,
            start_point_id:27,
            monster_ai_mode:0,
            defeat_monster:'false',
            event_active_wave_id01:0,
            event_active_wave_id02:0,
            event_active_wave_id03:0,
            event_active_wave_id04:0,
            event_active_wave_id05:0,
            event_active_wave_id06:0,
            event_active_wave_id07:0,
            event_active_wave_id08:0,
            event_active_wave_id09:0,
            event_active_wave_id10:0
        },
        {
            field_id:1,
            wave_id:19,
            event_active_wave:'false',
            event_occurs_condition:0,
            event_strory_conversation_id:0,
            event_move_point:0,
            event_avtive_monster_hp_rate:0,
            event_avtive_time:0,
            start_time:63,
            repeat_time:0,
            wave_count:1,
            monster_id:9,
            start_point_id:36,
            monster_ai_mode:0,
            defeat_monster:'false',
            event_active_wave_id01:0,
            event_active_wave_id02:0,
            event_active_wave_id03:0,
            event_active_wave_id04:0,
            event_active_wave_id05:0,
            event_active_wave_id06:0,
            event_active_wave_id07:0,
            event_active_wave_id08:0,
            event_active_wave_id09:0,
            event_active_wave_id10:0
        },
        {
            field_id:1,
            wave_id:20,
            event_active_wave:'false',
            event_occurs_condition:0,
            event_strory_conversation_id:0,
            event_move_point:0,
            event_avtive_monster_hp_rate:0,
            event_avtive_time:0,
            start_time:70,
            repeat_time:10,
            wave_count:2,
            monster_id:6,
            start_point_id:1,
            monster_ai_mode:0,
            defeat_monster:'false',
            event_active_wave_id01:0,
            event_active_wave_id02:0,
            event_active_wave_id03:0,
            event_active_wave_id04:0,
            event_active_wave_id05:0,
            event_active_wave_id06:0,
            event_active_wave_id07:0,
            event_active_wave_id08:0,
            event_active_wave_id09:0,
            event_active_wave_id10:0
        },
        {
            field_id:1,
            wave_id:21,
            event_active_wave:'false',
            event_occurs_condition:0,
            event_strory_conversation_id:0,
            event_move_point:0,
            event_avtive_monster_hp_rate:0,
            event_avtive_time:0,
            start_time:71,
            repeat_time:10,
            wave_count:2,
            monster_id:10,
            start_point_id:19,
            monster_ai_mode:0,
            defeat_monster:'false',
            event_active_wave_id01:0,
            event_active_wave_id02:0,
            event_active_wave_id03:0,
            event_active_wave_id04:0,
            event_active_wave_id05:0,
            event_active_wave_id06:0,
            event_active_wave_id07:0,
            event_active_wave_id08:0,
            event_active_wave_id09:0,
            event_active_wave_id10:0
        },
        {
            field_id:1,
            wave_id:22,
            event_active_wave:'false',
            event_occurs_condition:0,
            event_strory_conversation_id:0,
            event_move_point:0,
            event_avtive_monster_hp_rate:0,
            event_avtive_time:0,
            start_time:72,
            repeat_time:10,
            wave_count:2,
            monster_id:4,
            start_point_id:37,
            monster_ai_mode:0,
            defeat_monster:'false',
            event_active_wave_id01:0,
            event_active_wave_id02:0,
            event_active_wave_id03:0,
            event_active_wave_id04:0,
            event_active_wave_id05:0,
            event_active_wave_id06:0,
            event_active_wave_id07:0,
            event_active_wave_id08:0,
            event_active_wave_id09:0,
            event_active_wave_id10:0
        },
        {
            field_id:1,
            wave_id:23,
            event_active_wave:'false',
            event_occurs_condition:0,
            event_strory_conversation_id:0,
            event_move_point:0,
            event_avtive_monster_hp_rate:0,
            event_avtive_time:0,
            start_time:90,
            repeat_time:0,
            wave_count:1,
            monster_id:9,
            start_point_id:27,
            monster_ai_mode:0,
            defeat_monster:'false',
            event_active_wave_id01:0,
            event_active_wave_id02:0,
            event_active_wave_id03:0,
            event_active_wave_id04:0,
            event_active_wave_id05:0,
            event_active_wave_id06:0,
            event_active_wave_id07:0,
            event_active_wave_id08:0,
            event_active_wave_id09:0,
            event_active_wave_id10:0
        },
        {
            field_id:1,
            wave_id:24,
            event_active_wave:'false',
            event_occurs_condition:0,
            event_strory_conversation_id:0,
            event_move_point:0,
            event_avtive_monster_hp_rate:0,
            event_avtive_time:0,
            start_time:91,
            repeat_time:0,
            wave_count:1,
            monster_id:10,
            start_point_id:36,
            monster_ai_mode:0,
            defeat_monster:'false',
            event_active_wave_id01:0,
            event_active_wave_id02:0,
            event_active_wave_id03:0,
            event_active_wave_id04:0,
            event_active_wave_id05:0,
            event_active_wave_id06:0,
            event_active_wave_id07:0,
            event_active_wave_id08:0,
            event_active_wave_id09:0,
            event_active_wave_id10:0
        },
        {
            field_id:1,
            wave_id:25,
            event_active_wave:'false',
            event_occurs_condition:0,
            event_strory_conversation_id:0,
            event_move_point:0,
            event_avtive_monster_hp_rate:0,
            event_avtive_time:0,
            start_time:92,
            repeat_time:0,
            wave_count:1,
            monster_id:9,
            start_point_id:45,
            monster_ai_mode:0,
            defeat_monster:'false',
            event_active_wave_id01:0,
            event_active_wave_id02:0,
            event_active_wave_id03:0,
            event_active_wave_id04:0,
            event_active_wave_id05:0,
            event_active_wave_id06:0,
            event_active_wave_id07:0,
            event_active_wave_id08:0,
            event_active_wave_id09:0,
            event_active_wave_id10:0
        },
        {
            field_id:1,
            wave_id:26,
            event_active_wave:'true',
            event_occurs_condition:0,
            event_strory_conversation_id:0,
            event_move_point:0,
            event_avtive_monster_hp_rate:0,
            event_avtive_time:0,
            start_time:500,
            repeat_time:0,
            wave_count:1,
            monster_id:7,
            start_point_id:20,
            monster_ai_mode:0,
            defeat_monster:'false',
            event_active_wave_id01:0,
            event_active_wave_id02:0,
            event_active_wave_id03:0,
            event_active_wave_id04:0,
            event_active_wave_id05:0,
            event_active_wave_id06:0,
            event_active_wave_id07:0,
            event_active_wave_id08:0,
            event_active_wave_id09:0,
            event_active_wave_id10:0
        },
        {
            field_id:1,
            wave_id:27,
            event_active_wave:'true',
            event_occurs_condition:0,
            event_strory_conversation_id:0,
            event_move_point:0,
            event_avtive_monster_hp_rate:0,
            event_avtive_time:0,
            start_time:500,
            repeat_time:0,
            wave_count:1,
            monster_id:13,
            start_point_id:26,
            monster_ai_mode:0,
            defeat_monster:'false',
            event_active_wave_id01:0,
            event_active_wave_id02:0,
            event_active_wave_id03:0,
            event_active_wave_id04:0,
            event_active_wave_id05:0,
            event_active_wave_id06:0,
            event_active_wave_id07:0,
            event_active_wave_id08:0,
            event_active_wave_id09:0,
            event_active_wave_id10:0
        }
    ]