﻿[
        {
            field_id:1,
            wave_id:1,
            event_active_wave:'false',
            event_occurs_condition:0,
            event_strory_conversation_id:0,
            event_move_point:0,
            event_avtive_monster_hp_rate:0,
            event_avtive_time:0,
            start_time:0,
            repeat_time:0,
            wave_count:1,
            monster_id:4,
            start_point_id:7,
            monster_ai_mode:0,
            defeat_monster:'false',
            event_active_wave_id01:0,
            event_active_wave_id02:0,
            event_active_wave_id03:0,
            event_active_wave_id04:0,
            event_active_wave_id05:0,
            event_active_wave_id06:0,
            event_active_wave_id07:0,
            event_active_wave_id08:0,
            event_active_wave_id09:0,
            event_active_wave_id10:0
        },
        {
            field_id:1,
            wave_id:2,
            event_active_wave:'false',
            event_occurs_condition:0,
            event_strory_conversation_id:0,
            event_move_point:0,
            event_avtive_monster_hp_rate:0,
            event_avtive_time:0,
            start_time:0,
            repeat_time:0,
            wave_count:1,
            monster_id:10,
            start_point_id:43,
            monster_ai_mode:0,
            defeat_monster:'false',
            event_active_wave_id01:0,
            event_active_wave_id02:0,
            event_active_wave_id03:0,
            event_active_wave_id04:0,
            event_active_wave_id05:0,
            event_active_wave_id06:0,
            event_active_wave_id07:0,
            event_active_wave_id08:0,
            event_active_wave_id09:0,
            event_active_wave_id10:0
        },
        {
            field_id:1,
            wave_id:3,
            event_active_wave:'false',
            event_occurs_condition:2,
            event_strory_conversation_id:15,
            event_move_point:0,
            event_avtive_monster_hp_rate:0,
            event_avtive_time:0,
            start_time:0,
            repeat_time:0,
            wave_count:1,
            monster_id:14,
            start_point_id:12,
            monster_ai_mode:0,
            defeat_monster:'false',
            event_active_wave_id01:0,
            event_active_wave_id02:0,
            event_active_wave_id03:0,
            event_active_wave_id04:0,
            event_active_wave_id05:0,
            event_active_wave_id06:0,
            event_active_wave_id07:0,
            event_active_wave_id08:0,
            event_active_wave_id09:0,
            event_active_wave_id10:0
        },
        {
            field_id:1,
            wave_id:4,
            event_active_wave:'false',
            event_occurs_condition:0,
            event_strory_conversation_id:0,
            event_move_point:0,
            event_avtive_monster_hp_rate:0,
            event_avtive_time:0,
            start_time:0,
            repeat_time:0,
            wave_count:1,
            monster_id:4,
            start_point_id:30,
            monster_ai_mode:0,
            defeat_monster:'false',
            event_active_wave_id01:0,
            event_active_wave_id02:0,
            event_active_wave_id03:0,
            event_active_wave_id04:0,
            event_active_wave_id05:0,
            event_active_wave_id06:0,
            event_active_wave_id07:0,
            event_active_wave_id08:0,
            event_active_wave_id09:0,
            event_active_wave_id10:0
        },
        {
            field_id:1,
            wave_id:5,
            event_active_wave:'false',
            event_occurs_condition:0,
            event_strory_conversation_id:0,
            event_move_point:0,
            event_avtive_monster_hp_rate:0,
            event_avtive_time:0,
            start_time:10,
            repeat_time:0,
            wave_count:1,
            monster_id:9,
            start_point_id:18,
            monster_ai_mode:0,
            defeat_monster:'false',
            event_active_wave_id01:0,
            event_active_wave_id02:0,
            event_active_wave_id03:0,
            event_active_wave_id04:0,
            event_active_wave_id05:0,
            event_active_wave_id06:0,
            event_active_wave_id07:0,
            event_active_wave_id08:0,
            event_active_wave_id09:0,
            event_active_wave_id10:0
        },
        {
            field_id:1,
            wave_id:6,
            event_active_wave:'false',
            event_occurs_condition:0,
            event_strory_conversation_id:0,
            event_move_point:0,
            event_avtive_monster_hp_rate:0,
            event_avtive_time:0,
            start_time:11,
            repeat_time:0,
            wave_count:1,
            monster_id:10,
            start_point_id:27,
            monster_ai_mode:0,
            defeat_monster:'false',
            event_active_wave_id01:0,
            event_active_wave_id02:0,
            event_active_wave_id03:0,
            event_active_wave_id04:0,
            event_active_wave_id05:0,
            event_active_wave_id06:0,
            event_active_wave_id07:0,
            event_active_wave_id08:0,
            event_active_wave_id09:0,
            event_active_wave_id10:0
        },
        {
            field_id:1,
            wave_id:7,
            event_active_wave:'false',
            event_occurs_condition:0,
            event_strory_conversation_id:0,
            event_move_point:0,
            event_avtive_monster_hp_rate:0,
            event_avtive_time:0,
            start_time:12,
            repeat_time:0,
            wave_count:1,
            monster_id:9,
            start_point_id:36,
            monster_ai_mode:0,
            defeat_monster:'false',
            event_active_wave_id01:0,
            event_active_wave_id02:0,
            event_active_wave_id03:0,
            event_active_wave_id04:0,
            event_active_wave_id05:0,
            event_active_wave_id06:0,
            event_active_wave_id07:0,
            event_active_wave_id08:0,
            event_active_wave_id09:0,
            event_active_wave_id10:0
        },
        {
            field_id:1,
            wave_id:8,
            event_active_wave:'false',
            event_occurs_condition:0,
            event_strory_conversation_id:0,
            event_move_point:0,
            event_avtive_monster_hp_rate:0,
            event_avtive_time:0,
            start_time:20,
            repeat_time:10,
            wave_count:3,
            monster_id:9,
            start_point_id:10,
            monster_ai_mode:0,
            defeat_monster:'false',
            event_active_wave_id01:0,
            event_active_wave_id02:0,
            event_active_wave_id03:0,
            event_active_wave_id04:0,
            event_active_wave_id05:0,
            event_active_wave_id06:0,
            event_active_wave_id07:0,
            event_active_wave_id08:0,
            event_active_wave_id09:0,
            event_active_wave_id10:0
        },
        {
            field_id:1,
            wave_id:9,
            event_active_wave:'false',
            event_occurs_condition:0,
            event_strory_conversation_id:0,
            event_move_point:0,
            event_avtive_monster_hp_rate:0,
            event_avtive_time:0,
            start_time:21,
            repeat_time:10,
            wave_count:3,
            monster_id:12,
            start_point_id:19,
            monster_ai_mode:0,
            defeat_monster:'false',
            event_active_wave_id01:0,
            event_active_wave_id02:0,
            event_active_wave_id03:0,
            event_active_wave_id04:0,
            event_active_wave_id05:0,
            event_active_wave_id06:0,
            event_active_wave_id07:0,
            event_active_wave_id08:0,
            event_active_wave_id09:0,
            event_active_wave_id10:0
        },
        {
            field_id:1,
            wave_id:10,
            event_active_wave:'false',
            event_occurs_condition:0,
            event_strory_conversation_id:0,
            event_move_point:0,
            event_avtive_monster_hp_rate:0,
            event_avtive_time:0,
            start_time:22,
            repeat_time:10,
            wave_count:3,
            monster_id:12,
            start_point_id:18,
            monster_ai_mode:0,
            defeat_monster:'false',
            event_active_wave_id01:0,
            event_active_wave_id02:0,
            event_active_wave_id03:0,
            event_active_wave_id04:0,
            event_active_wave_id05:0,
            event_active_wave_id06:0,
            event_active_wave_id07:0,
            event_active_wave_id08:0,
            event_active_wave_id09:0,
            event_active_wave_id10:0
        },
        {
            field_id:1,
            wave_id:11,
            event_active_wave:'false',
            event_occurs_condition:0,
            event_strory_conversation_id:0,
            event_move_point:0,
            event_avtive_monster_hp_rate:0,
            event_avtive_time:0,
            start_time:13,
            repeat_time:10,
            wave_count:3,
            monster_id:9,
            start_point_id:27,
            monster_ai_mode:0,
            defeat_monster:'false',
            event_active_wave_id01:0,
            event_active_wave_id02:0,
            event_active_wave_id03:0,
            event_active_wave_id04:0,
            event_active_wave_id05:0,
            event_active_wave_id06:0,
            event_active_wave_id07:0,
            event_active_wave_id08:0,
            event_active_wave_id09:0,
            event_active_wave_id10:0
        },
        {
            field_id:1,
            wave_id:12,
            event_active_wave:'false',
            event_occurs_condition:0,
            event_strory_conversation_id:0,
            event_move_point:0,
            event_avtive_monster_hp_rate:0,
            event_avtive_time:0,
            start_time:25,
            repeat_time:5,
            wave_count:2,
            monster_id:13,
            start_point_id:18,
            monster_ai_mode:0,
            defeat_monster:'false',
            event_active_wave_id01:0,
            event_active_wave_id02:0,
            event_active_wave_id03:0,
            event_active_wave_id04:0,
            event_active_wave_id05:0,
            event_active_wave_id06:0,
            event_active_wave_id07:0,
            event_active_wave_id08:0,
            event_active_wave_id09:0,
            event_active_wave_id10:0
        },
        {
            field_id:1,
            wave_id:13,
            event_active_wave:'false',
            event_occurs_condition:0,
            event_strory_conversation_id:0,
            event_move_point:0,
            event_avtive_monster_hp_rate:0,
            event_avtive_time:0,
            start_time:26,
            repeat_time:5,
            wave_count:2,
            monster_id:13,
            start_point_id:27,
            monster_ai_mode:0,
            defeat_monster:'false',
            event_active_wave_id01:0,
            event_active_wave_id02:0,
            event_active_wave_id03:0,
            event_active_wave_id04:0,
            event_active_wave_id05:0,
            event_active_wave_id06:0,
            event_active_wave_id07:0,
            event_active_wave_id08:0,
            event_active_wave_id09:0,
            event_active_wave_id10:0
        },
        {
            field_id:1,
            wave_id:14,
            event_active_wave:'false',
            event_occurs_condition:0,
            event_strory_conversation_id:0,
            event_move_point:0,
            event_avtive_monster_hp_rate:0,
            event_avtive_time:0,
            start_time:50,
            repeat_time:0,
            wave_count:1,
            monster_id:4,
            start_point_id:10,
            monster_ai_mode:0,
            defeat_monster:'false',
            event_active_wave_id01:0,
            event_active_wave_id02:0,
            event_active_wave_id03:0,
            event_active_wave_id04:0,
            event_active_wave_id05:0,
            event_active_wave_id06:0,
            event_active_wave_id07:0,
            event_active_wave_id08:0,
            event_active_wave_id09:0,
            event_active_wave_id10:0
        },
        {
            field_id:1,
            wave_id:15,
            event_active_wave:'false',
            event_occurs_condition:0,
            event_strory_conversation_id:0,
            event_move_point:0,
            event_avtive_monster_hp_rate:0,
            event_avtive_time:0,
            start_time:51,
            repeat_time:0,
            wave_count:1,
            monster_id:4,
            start_point_id:10,
            monster_ai_mode:0,
            defeat_monster:'false',
            event_active_wave_id01:0,
            event_active_wave_id02:0,
            event_active_wave_id03:0,
            event_active_wave_id04:0,
            event_active_wave_id05:0,
            event_active_wave_id06:0,
            event_active_wave_id07:0,
            event_active_wave_id08:0,
            event_active_wave_id09:0,
            event_active_wave_id10:0
        },
        {
            field_id:1,
            wave_id:16,
            event_active_wave:'false',
            event_occurs_condition:0,
            event_strory_conversation_id:0,
            event_move_point:0,
            event_avtive_monster_hp_rate:0,
            event_avtive_time:0,
            start_time:52,
            repeat_time:0,
            wave_count:1,
            monster_id:10,
            start_point_id:19,
            monster_ai_mode:0,
            defeat_monster:'false',
            event_active_wave_id01:0,
            event_active_wave_id02:0,
            event_active_wave_id03:0,
            event_active_wave_id04:0,
            event_active_wave_id05:0,
            event_active_wave_id06:0,
            event_active_wave_id07:0,
            event_active_wave_id08:0,
            event_active_wave_id09:0,
            event_active_wave_id10:0
        },
        {
            field_id:1,
            wave_id:17,
            event_active_wave:'false',
            event_occurs_condition:0,
            event_strory_conversation_id:0,
            event_move_point:0,
            event_avtive_monster_hp_rate:0,
            event_avtive_time:0,
            start_time:53,
            repeat_time:0,
            wave_count:1,
            monster_id:4,
            start_point_id:28,
            monster_ai_mode:0,
            defeat_monster:'false',
            event_active_wave_id01:0,
            event_active_wave_id02:0,
            event_active_wave_id03:0,
            event_active_wave_id04:0,
            event_active_wave_id05:0,
            event_active_wave_id06:0,
            event_active_wave_id07:0,
            event_active_wave_id08:0,
            event_active_wave_id09:0,
            event_active_wave_id10:0
        },
        {
            field_id:1,
            wave_id:18,
            event_active_wave:'false',
            event_occurs_condition:0,
            event_strory_conversation_id:0,
            event_move_point:0,
            event_avtive_monster_hp_rate:0,
            event_avtive_time:0,
            start_time:60,
            repeat_time:10,
            wave_count:2,
            monster_id:12,
            start_point_id:9,
            monster_ai_mode:0,
            defeat_monster:'false',
            event_active_wave_id01:0,
            event_active_wave_id02:0,
            event_active_wave_id03:0,
            event_active_wave_id04:0,
            event_active_wave_id05:0,
            event_active_wave_id06:0,
            event_active_wave_id07:0,
            event_active_wave_id08:0,
            event_active_wave_id09:0,
            event_active_wave_id10:0
        },
        {
            field_id:1,
            wave_id:19,
            event_active_wave:'false',
            event_occurs_condition:0,
            event_strory_conversation_id:0,
            event_move_point:0,
            event_avtive_monster_hp_rate:0,
            event_avtive_time:0,
            start_time:61,
            repeat_time:10,
            wave_count:2,
            monster_id:13,
            start_point_id:18,
            monster_ai_mode:0,
            defeat_monster:'false',
            event_active_wave_id01:0,
            event_active_wave_id02:0,
            event_active_wave_id03:0,
            event_active_wave_id04:0,
            event_active_wave_id05:0,
            event_active_wave_id06:0,
            event_active_wave_id07:0,
            event_active_wave_id08:0,
            event_active_wave_id09:0,
            event_active_wave_id10:0
        },
        {
            field_id:1,
            wave_id:20,
            event_active_wave:'false',
            event_occurs_condition:0,
            event_strory_conversation_id:0,
            event_move_point:0,
            event_avtive_monster_hp_rate:0,
            event_avtive_time:0,
            start_time:62,
            repeat_time:10,
            wave_count:2,
            monster_id:10,
            start_point_id:27,
            monster_ai_mode:0,
            defeat_monster:'false',
            event_active_wave_id01:0,
            event_active_wave_id02:0,
            event_active_wave_id03:0,
            event_active_wave_id04:0,
            event_active_wave_id05:0,
            event_active_wave_id06:0,
            event_active_wave_id07:0,
            event_active_wave_id08:0,
            event_active_wave_id09:0,
            event_active_wave_id10:0
        },
        {
            field_id:1,
            wave_id:21,
            event_active_wave:'false',
            event_occurs_condition:0,
            event_strory_conversation_id:0,
            event_move_point:0,
            event_avtive_monster_hp_rate:0,
            event_avtive_time:0,
            start_time:65,
            repeat_time:5,
            wave_count:1,
            monster_id:13,
            start_point_id:28,
            monster_ai_mode:0,
            defeat_monster:'false',
            event_active_wave_id01:0,
            event_active_wave_id02:0,
            event_active_wave_id03:0,
            event_active_wave_id04:0,
            event_active_wave_id05:0,
            event_active_wave_id06:0,
            event_active_wave_id07:0,
            event_active_wave_id08:0,
            event_active_wave_id09:0,
            event_active_wave_id10:0
        },
        {
            field_id:1,
            wave_id:22,
            event_active_wave:'false',
            event_occurs_condition:0,
            event_strory_conversation_id:0,
            event_move_point:0,
            event_avtive_monster_hp_rate:0,
            event_avtive_time:0,
            start_time:66,
            repeat_time:5,
            wave_count:1,
            monster_id:13,
            start_point_id:37,
            monster_ai_mode:0,
            defeat_monster:'false',
            event_active_wave_id01:0,
            event_active_wave_id02:0,
            event_active_wave_id03:0,
            event_active_wave_id04:0,
            event_active_wave_id05:0,
            event_active_wave_id06:0,
            event_active_wave_id07:0,
            event_active_wave_id08:0,
            event_active_wave_id09:0,
            event_active_wave_id10:0
        },
        {
            field_id:1,
            wave_id:23,
            event_active_wave:'false',
            event_occurs_condition:0,
            event_strory_conversation_id:0,
            event_move_point:0,
            event_avtive_monster_hp_rate:0,
            event_avtive_time:0,
            start_time:80,
            repeat_time:0,
            wave_count:1,
            monster_id:10,
            start_point_id:1,
            monster_ai_mode:0,
            defeat_monster:'false',
            event_active_wave_id01:0,
            event_active_wave_id02:0,
            event_active_wave_id03:0,
            event_active_wave_id04:0,
            event_active_wave_id05:0,
            event_active_wave_id06:0,
            event_active_wave_id07:0,
            event_active_wave_id08:0,
            event_active_wave_id09:0,
            event_active_wave_id10:0
        },
        {
            field_id:1,
            wave_id:24,
            event_active_wave:'false',
            event_occurs_condition:0,
            event_strory_conversation_id:0,
            event_move_point:0,
            event_avtive_monster_hp_rate:0,
            event_avtive_time:0,
            start_time:81,
            repeat_time:0,
            wave_count:1,
            monster_id:10,
            start_point_id:9,
            monster_ai_mode:0,
            defeat_monster:'false',
            event_active_wave_id01:0,
            event_active_wave_id02:0,
            event_active_wave_id03:0,
            event_active_wave_id04:0,
            event_active_wave_id05:0,
            event_active_wave_id06:0,
            event_active_wave_id07:0,
            event_active_wave_id08:0,
            event_active_wave_id09:0,
            event_active_wave_id10:0
        },
        {
            field_id:1,
            wave_id:25,
            event_active_wave:'false',
            event_occurs_condition:0,
            event_strory_conversation_id:0,
            event_move_point:0,
            event_avtive_monster_hp_rate:0,
            event_avtive_time:0,
            start_time:82,
            repeat_time:0,
            wave_count:1,
            monster_id:10,
            start_point_id:37,
            monster_ai_mode:0,
            defeat_monster:'false',
            event_active_wave_id01:0,
            event_active_wave_id02:0,
            event_active_wave_id03:0,
            event_active_wave_id04:0,
            event_active_wave_id05:0,
            event_active_wave_id06:0,
            event_active_wave_id07:0,
            event_active_wave_id08:0,
            event_active_wave_id09:0,
            event_active_wave_id10:0
        },
        {
            field_id:1,
            wave_id:25,
            event_active_wave:'false',
            event_occurs_condition:0,
            event_strory_conversation_id:0,
            event_move_point:0,
            event_avtive_monster_hp_rate:0,
            event_avtive_time:0,
            start_time:83,
            repeat_time:0,
            wave_count:1,
            monster_id:10,
            start_point_id:45,
            monster_ai_mode:0,
            defeat_monster:'false',
            event_active_wave_id01:0,
            event_active_wave_id02:0,
            event_active_wave_id03:0,
            event_active_wave_id04:0,
            event_active_wave_id05:0,
            event_active_wave_id06:0,
            event_active_wave_id07:0,
            event_active_wave_id08:0,
            event_active_wave_id09:0,
            event_active_wave_id10:0
        }
    ]