%YAML 1.1
%TAG !u! tag:unity3d.com,2011:
--- !u!1 &100000
GameObject:
  m_ObjectHideFlags: 0
  m_PrefabParentObject: {fileID: 0}
  m_PrefabInternal: {fileID: 100100000}
  serializedVersion: 4
  m_Component:
  - 4: {fileID: 400000}
  - 114: {fileID: 11400000}
  m_Layer: 0
  m_Name: Ghost_SpriteCollection
  m_TagString: Untagged
  m_Icon: {fileID: 0}
  m_NavMeshLayer: 0
  m_StaticEditorFlags: 0
  m_IsActive: 0
--- !u!4 &400000
Transform:
  m_ObjectHideFlags: 1
  m_PrefabParentObject: {fileID: 0}
  m_PrefabInternal: {fileID: 100100000}
  m_GameObject: {fileID: 100000}
  m_LocalRotation: {x: 0, y: 0, z: 0, w: 1}
  m_LocalPosition: {x: 0, y: 0, z: 0}
  m_LocalScale: {x: 1, y: 1, z: 1}
  m_Children: []
  m_Father: {fileID: 0}
  m_RootOrder: 0
--- !u!114 &11400000
MonoBehaviour:
  m_ObjectHideFlags: 1
  m_PrefabParentObject: {fileID: 0}
  m_PrefabInternal: {fileID: 100100000}
  m_GameObject: {fileID: 100000}
  m_Enabled: 1
  m_EditorHideFlags: 0
  m_Script: {fileID: 11500000, guid: 84c7a4b4ee15890498f818262bca0312, type: 3}
  m_Name: 
  m_EditorClassIdentifier: 
  textures: []
  textureRefs: []
  spriteSheets: []
  fonts: []
  defaults:
    additive: 0
    scale: {x: 1, y: 1, z: 1}
    anchor: 4
    pad: 0
    colliderType: 0
  platforms:
  - name: 
    spriteCollection: {fileID: 0}
  managedSpriteCollection: 0
  loadable: 0
  atlasFormat: 0
  maxTextureSize: 2048
  forceTextureSize: 0
  forcedTextureWidth: 2048
  forcedTextureHeight: 2048
  textureCompression: 0
  atlasWidth: 512
  atlasHeight: 512
  forceSquareAtlas: 0
  atlasWastage: 41.1819458
  allowMultipleAtlases: 0
  removeDuplicates: 1
  textureParams:
  - name: Body
    disableTrimming: 0
    additive: 0
    scale: {x: 1, y: 1, z: 1}
    texture: {fileID: 2800000, guid: c4f9f3e1b622dd54bbb031cecf699f4c, type: 3}
    materialId: 0
    anchor: 4
    anchorX: 0
    anchorY: 0
    overrideMesh: {fileID: 0}
    doubleSidedSprite: 0
    customSpriteGeometry: 0
    geometryIslands: []
    dice: 0
    diceUnitX: 64
    diceUnitY: 64
    diceFilter: 0
    pad: 0
    extraPadding: 0
    source: 0
    fromSpriteSheet: 0
    hasSpriteSheetId: 0
    spriteSheetId: 0
    spriteSheetX: 0
    spriteSheetY: 0
    extractRegion: 0
    regionX: 0
    regionY: 0
    regionW: 0
    regionH: 0
    regionId: 0
    colliderType: 0
    colliderData: []
    boxColliderMin: {x: 0, y: 0}
    boxColliderMax: {x: 0, y: 0}
    polyColliderIslands: []
    polyColliderCap: 1
    colliderConvex: 0
    colliderSmoothSphereCollisions: 0
    colliderColor: 0
    attachPoints: []
  - name: Forearm_L
    disableTrimming: 0
    additive: 0
    scale: {x: 1, y: 1, z: 1}
    texture: {fileID: 2800000, guid: 41fa4684f644ded47be561e23f06233f, type: 3}
    materialId: 0
    anchor: 4
    anchorX: 0
    anchorY: 0
    overrideMesh: {fileID: 0}
    doubleSidedSprite: 0
    customSpriteGeometry: 0
    geometryIslands: []
    dice: 0
    diceUnitX: 64
    diceUnitY: 64
    diceFilter: 0
    pad: 0
    extraPadding: 0
    source: 0
    fromSpriteSheet: 0
    hasSpriteSheetId: 0
    spriteSheetId: 0
    spriteSheetX: 0
    spriteSheetY: 0
    extractRegion: 0
    regionX: 0
    regionY: 0
    regionW: 0
    regionH: 0
    regionId: 0
    colliderType: 0
    colliderData: []
    boxColliderMin: {x: 0, y: 0}
    boxColliderMax: {x: 0, y: 0}
    polyColliderIslands: []
    polyColliderCap: 1
    colliderConvex: 0
    colliderSmoothSphereCollisions: 0
    colliderColor: 0
    attachPoints: []
  - name: Forearm_R
    disableTrimming: 0
    additive: 0
    scale: {x: 1, y: 1, z: 1}
    texture: {fileID: 2800000, guid: 5153c7df5aea1a344a166f6e6e351694, type: 3}
    materialId: 0
    anchor: 4
    anchorX: 0
    anchorY: 0
    overrideMesh: {fileID: 0}
    doubleSidedSprite: 0
    customSpriteGeometry: 0
    geometryIslands: []
    dice: 0
    diceUnitX: 64
    diceUnitY: 64
    diceFilter: 0
    pad: 0
    extraPadding: 0
    source: 0
    fromSpriteSheet: 0
    hasSpriteSheetId: 0
    spriteSheetId: 0
    spriteSheetX: 0
    spriteSheetY: 0
    extractRegion: 0
    regionX: 0
    regionY: 0
    regionW: 0
    regionH: 0
    regionId: 0
    colliderType: 0
    colliderData: []
    boxColliderMin: {x: 0, y: 0}
    boxColliderMax: {x: 0, y: 0}
    polyColliderIslands: []
    polyColliderCap: 1
    colliderConvex: 0
    colliderSmoothSphereCollisions: 0
    colliderColor: 0
    attachPoints: []
  - name: Hand_L
    disableTrimming: 0
    additive: 0
    scale: {x: 1, y: 1, z: 1}
    texture: {fileID: 2800000, guid: fd3b21a6475d11b4ba8eec33a1172896, type: 3}
    materialId: 0
    anchor: 4
    anchorX: 0
    anchorY: 0
    overrideMesh: {fileID: 0}
    doubleSidedSprite: 0
    customSpriteGeometry: 0
    geometryIslands: []
    dice: 0
    diceUnitX: 64
    diceUnitY: 64
    diceFilter: 0
    pad: 0
    extraPadding: 0
    source: 0
    fromSpriteSheet: 0
    hasSpriteSheetId: 0
    spriteSheetId: 0
    spriteSheetX: 0
    spriteSheetY: 0
    extractRegion: 0
    regionX: 0
    regionY: 0
    regionW: 0
    regionH: 0
    regionId: 0
    colliderType: 0
    colliderData: []
    boxColliderMin: {x: 0, y: 0}
    boxColliderMax: {x: 0, y: 0}
    polyColliderIslands: []
    polyColliderCap: 1
    colliderConvex: 0
    colliderSmoothSphereCollisions: 0
    colliderColor: 0
    attachPoints: []
  - name: Hand_R
    disableTrimming: 0
    additive: 0
    scale: {x: 1, y: 1, z: 1}
    texture: {fileID: 2800000, guid: fc502b516f429a4478452b5b55f90ae8, type: 3}
    materialId: 0
    anchor: 4
    anchorX: 0
    anchorY: 0
    overrideMesh: {fileID: 0}
    doubleSidedSprite: 0
    customSpriteGeometry: 0
    geometryIslands: []
    dice: 0
    diceUnitX: 64
    diceUnitY: 64
    diceFilter: 0
    pad: 0
    extraPadding: 0
    source: 0
    fromSpriteSheet: 0
    hasSpriteSheetId: 0
    spriteSheetId: 0
    spriteSheetX: 0
    spriteSheetY: 0
    extractRegion: 0
    regionX: 0
    regionY: 0
    regionW: 0
    regionH: 0
    regionId: 0
    colliderType: 0
    colliderData: []
    boxColliderMin: {x: 0, y: 0}
    boxColliderMax: {x: 0, y: 0}
    polyColliderIslands: []
    polyColliderCap: 1
    colliderConvex: 0
    colliderSmoothSphereCollisions: 0
    colliderColor: 0
    attachPoints: []
  - name: Head
    disableTrimming: 0
    additive: 0
    scale: {x: 1, y: 1, z: 1}
    texture: {fileID: 2800000, guid: a069bbf6ac186544aa65023dad8bd0e9, type: 3}
    materialId: 0
    anchor: 4
    anchorX: 0
    anchorY: 0
    overrideMesh: {fileID: 0}
    doubleSidedSprite: 0
    customSpriteGeometry: 0
    geometryIslands: []
    dice: 0
    diceUnitX: 64
    diceUnitY: 64
    diceFilter: 0
    pad: 0
    extraPadding: 0
    source: 0
    fromSpriteSheet: 0
    hasSpriteSheetId: 0
    spriteSheetId: 0
    spriteSheetX: 0
    spriteSheetY: 0
    extractRegion: 0
    regionX: 0
    regionY: 0
    regionW: 0
    regionH: 0
    regionId: 0
    colliderType: 0
    colliderData: []
    boxColliderMin: {x: 0, y: 0}
    boxColliderMax: {x: 0, y: 0}
    polyColliderIslands: []
    polyColliderCap: 1
    colliderConvex: 0
    colliderSmoothSphereCollisions: 0
    colliderColor: 0
    attachPoints: []
  - name: Pose_01
    disableTrimming: 0
    additive: 0
    scale: {x: 1, y: 1, z: 1}
    texture: {fileID: 2800000, guid: 50b033d1fdbfaa64f8206e62476688fc, type: 3}
    materialId: 0
    anchor: 4
    anchorX: 0
    anchorY: 0
    overrideMesh: {fileID: 0}
    doubleSidedSprite: 0
    customSpriteGeometry: 0
    geometryIslands: []
    dice: 0
    diceUnitX: 64
    diceUnitY: 64
    diceFilter: 0
    pad: 0
    extraPadding: 0
    source: 0
    fromSpriteSheet: 0
    hasSpriteSheetId: 0
    spriteSheetId: 0
    spriteSheetX: 0
    spriteSheetY: 0
    extractRegion: 0
    regionX: 0
    regionY: 0
    regionW: 0
    regionH: 0
    regionId: 0
    colliderType: 0
    colliderData: []
    boxColliderMin: {x: 0, y: 0}
    boxColliderMax: {x: 0, y: 0}
    polyColliderIslands: []
    polyColliderCap: 1
    colliderConvex: 0
    colliderSmoothSphereCollisions: 0
    colliderColor: 0
    attachPoints: []
  - name: Pose_02
    disableTrimming: 0
    additive: 0
    scale: {x: 1, y: 1, z: 1}
    texture: {fileID: 2800000, guid: 75c86a0c473f7234bb87ad82ebe30faf, type: 3}
    materialId: 0
    anchor: 4
    anchorX: 0
    anchorY: 0
    overrideMesh: {fileID: 0}
    doubleSidedSprite: 0
    customSpriteGeometry: 0
    geometryIslands: []
    dice: 0
    diceUnitX: 64
    diceUnitY: 64
    diceFilter: 0
    pad: 0
    extraPadding: 0
    source: 0
    fromSpriteSheet: 0
    hasSpriteSheetId: 0
    spriteSheetId: 0
    spriteSheetX: 0
    spriteSheetY: 0
    extractRegion: 0
    regionX: 0
    regionY: 0
    regionW: 0
    regionH: 0
    regionId: 0
    colliderType: 0
    colliderData: []
    boxColliderMin: {x: 0, y: 0}
    boxColliderMax: {x: 0, y: 0}
    polyColliderIslands: []
    polyColliderCap: 1
    colliderConvex: 0
    colliderSmoothSphereCollisions: 0
    colliderColor: 0
    attachPoints: []
  - name: Punch_01
    disableTrimming: 0
    additive: 0
    scale: {x: 1, y: 1, z: 1}
    texture: {fileID: 2800000, guid: d400fa9f013920c4796d1ffef78c8216, type: 3}
    materialId: 0
    anchor: 4
    anchorX: 0
    anchorY: 0
    overrideMesh: {fileID: 0}
    doubleSidedSprite: 0
    customSpriteGeometry: 0
    geometryIslands: []
    dice: 0
    diceUnitX: 64
    diceUnitY: 64
    diceFilter: 0
    pad: 0
    extraPadding: 0
    source: 0
    fromSpriteSheet: 0
    hasSpriteSheetId: 0
    spriteSheetId: 0
    spriteSheetX: 0
    spriteSheetY: 0
    extractRegion: 0
    regionX: 0
    regionY: 0
    regionW: 0
    regionH: 0
    regionId: 0
    colliderType: 0
    colliderData: []
    boxColliderMin: {x: 0, y: 0}
    boxColliderMax: {x: 0, y: 0}
    polyColliderIslands: []
    polyColliderCap: 1
    colliderConvex: 0
    colliderSmoothSphereCollisions: 0
    colliderColor: 0
    attachPoints: []
  - name: UpperArm_L
    disableTrimming: 0
    additive: 0
    scale: {x: 1, y: 1, z: 1}
    texture: {fileID: 2800000, guid: 36c3537117385c14dbaff5872c7f893a, type: 3}
    materialId: 0
    anchor: 4
    anchorX: 0
    anchorY: 0
    overrideMesh: {fileID: 0}
    doubleSidedSprite: 0
    customSpriteGeometry: 0
    geometryIslands: []
    dice: 0
    diceUnitX: 64
    diceUnitY: 64
    diceFilter: 0
    pad: 0
    extraPadding: 0
    source: 0
    fromSpriteSheet: 0
    hasSpriteSheetId: 0
    spriteSheetId: 0
    spriteSheetX: 0
    spriteSheetY: 0
    extractRegion: 0
    regionX: 0
    regionY: 0
    regionW: 0
    regionH: 0
    regionId: 0
    colliderType: 0
    colliderData: []
    boxColliderMin: {x: 0, y: 0}
    boxColliderMax: {x: 0, y: 0}
    polyColliderIslands: []
    polyColliderCap: 1
    colliderConvex: 0
    colliderSmoothSphereCollisions: 0
    colliderColor: 0
    attachPoints: []
  - name: UpperArm_R
    disableTrimming: 0
    additive: 0
    scale: {x: 1, y: 1, z: 1}
    texture: {fileID: 2800000, guid: cd45f56ef0e4dd649992d4d9ee2a06bf, type: 3}
    materialId: 0
    anchor: 4
    anchorX: 0
    anchorY: 0
    overrideMesh: {fileID: 0}
    doubleSidedSprite: 0
    customSpriteGeometry: 0
    geometryIslands: []
    dice: 0
    diceUnitX: 64
    diceUnitY: 64
    diceFilter: 0
    pad: 0
    extraPadding: 0
    source: 0
    fromSpriteSheet: 0
    hasSpriteSheetId: 0
    spriteSheetId: 0
    spriteSheetX: 0
    spriteSheetY: 0
    extractRegion: 0
    regionX: 0
    regionY: 0
    regionW: 0
    regionH: 0
    regionId: 0
    colliderType: 0
    colliderData: []
    boxColliderMin: {x: 0, y: 0}
    boxColliderMax: {x: 0, y: 0}
    polyColliderIslands: []
    polyColliderCap: 1
    colliderConvex: 0
    colliderSmoothSphereCollisions: 0
    colliderColor: 0
    attachPoints: []
  spriteCollection: {fileID: 11400000, guid: ed5835f95565f48488938e6e7c3a01e9, type: 2}
  premultipliedAlpha: 0
  altMaterials:
  - {fileID: 2100000, guid: 3c1c26b4885aad64e8147ab2bf1793ae, type: 2}
  atlasMaterials:
  - {fileID: 2100000, guid: 3c1c26b4885aad64e8147ab2bf1793ae, type: 2}
  atlasTextures:
  - {fileID: 2800000, guid: 4d56dfcdad7b67e4a99bdc0507834a80, type: 3}
  atlasTextureFiles: []
  useTk2dCamera: 0
  targetHeight: 640
  targetOrthoSize: 10
  sizeDef:
    type: 0
    orthoSize: 1
    pixelsPerMeter: 100
    width: 960
    height: 800
  globalScale: 1
  globalTextureRescale: 1
  attachPointTestSprites: []
  pixelPerfectPointSampled: 0
  filterMode: 1
  wrapMode: 1
  userDefinedTextureSettings: 0
  mipmapEnabled: 0
  anisoLevel: 1
  physicsEngine: 1
  physicsDepth: .100000001
  disableTrimming: 0
  disableRotation: 0
  normalGenerationMode: 0
  padAmount: -1
  autoUpdate: 1
  editorDisplayScale: 1
  version: 4
  assetName: 
--- !u!1001 &100100000
Prefab:
  m_ObjectHideFlags: 1
  serializedVersion: 2
  m_Modification:
    m_TransformParent: {fileID: 0}
    m_Modifications: []
    m_RemovedComponents: []
  m_ParentPrefab: {fileID: 0}
  m_RootGameObject: {fileID: 100000}
  m_IsPrefabParent: 1
  m_IsExploded: 1
