﻿[
        {
            thema_id:1,
            thema_name:'테마1',
            stage_id:1,
            stage_name:'스테이지 1',
            background_id:2,
            field_num:1,
            limit_time:' 80',
            clear_mode:1,
            clear_event_id:0,
            event_monster_id:0,
            player_pos:20,
            ally_01_id:0,
            ally_01_pos:0,
            ally_02_id:0,
            ally_02_pos:0,
            defense_npc_01_id:0,
            defense_npc_01_pos:0,
            defense_npc_02_id:0,
            defense_npc_02_pos:0,
            defense_npc_03_id:0,
            defense_npc_03_pos:0,
            user_hp_rate:0,
            user_mp_rate:0,
            monster_hp_rate:0,
            hp_recovery_rate:0,
            mp_recovery_rate:0
        },
        {
            thema_id:1,
            thema_name:'테마1',
            stage_id:2,
            stage_name:'스테이지 2',
            background_id:2,
            field_num:1,
            limit_time:150,
            clear_mode:2,
            clear_event_id:2,
            event_monster_id:3,
            player_pos:20,
            ally_01_id:0,
            ally_01_pos:0,
            ally_02_id:0,
            ally_02_pos:0,
            defense_npc_01_id:0,
            defense_npc_01_pos:0,
            defense_npc_02_id:0,
            defense_npc_02_pos:0,
            defense_npc_03_id:0,
            defense_npc_03_pos:0,
            user_hp_rate:0,
            user_mp_rate:0,
            monster_hp_rate:0,
            hp_recovery_rate:0,
            mp_recovery_rate:0
        },
        {
            thema_id:1,
            thema_name:'테마1',
            stage_id:3,
            stage_name:'스테이지 3',
            background_id:6,
            field_num:1,
            limit_time:150,
            clear_mode:2,
            clear_event_id:0,
            event_monster_id:0,
            player_pos:20,
            ally_01_id:0,
            ally_01_pos:0,
            ally_02_id:0,
            ally_02_pos:0,
            defense_npc_01_id:0,
            defense_npc_01_pos:0,
            defense_npc_02_id:0,
            defense_npc_02_pos:0,
            defense_npc_03_id:0,
            defense_npc_03_pos:0,
            user_hp_rate:0,
            user_mp_rate:0,
            monster_hp_rate:0,
            hp_recovery_rate:0,
            mp_recovery_rate:0
        },
        {
            thema_id:1,
            thema_name:'테마1',
            stage_id:4,
            stage_name:'스테이지 4',
            background_id:3,
            field_num:1,
            limit_time:80,
            clear_mode:1,
            clear_event_id:0,
            event_monster_id:0,
            player_pos:20,
            ally_01_id:0,
            ally_01_pos:0,
            ally_02_id:0,
            ally_02_pos:0,
            defense_npc_01_id:0,
            defense_npc_01_pos:0,
            defense_npc_02_id:0,
            defense_npc_02_pos:0,
            defense_npc_03_id:0,
            defense_npc_03_pos:0,
            user_hp_rate:0,
            user_mp_rate:0,
            monster_hp_rate:0,
            hp_recovery_rate:0,
            mp_recovery_rate:0
        },
        {
            thema_id:1,
            thema_name:'테마1',
            stage_id:5,
            stage_name:'스테이지 5',
            background_id:1,
            field_num:1,
            limit_time:150,
            clear_mode:2,
            clear_event_id:8,
            event_monster_id:2,
            player_pos:20,
            ally_01_id:0,
            ally_01_pos:0,
            ally_02_id:0,
            ally_02_pos:0,
            defense_npc_01_id:0,
            defense_npc_01_pos:0,
            defense_npc_02_id:0,
            defense_npc_02_pos:0,
            defense_npc_03_id:0,
            defense_npc_03_pos:0,
            user_hp_rate:0,
            user_mp_rate:0,
            monster_hp_rate:0,
            hp_recovery_rate:0,
            mp_recovery_rate:0
        },
        {
            thema_id:1,
            thema_name:'테마1',
            stage_id:6,
            stage_name:'스테이지 6',
            background_id:9,
            field_num:1,
            limit_time:80,
            clear_mode:1,
            clear_event_id:10,
            event_monster_id:9,
            player_pos:20,
            ally_01_id:0,
            ally_01_pos:0,
            ally_02_id:0,
            ally_02_pos:0,
            defense_npc_01_id:0,
            defense_npc_01_pos:0,
            defense_npc_02_id:0,
            defense_npc_02_pos:0,
            defense_npc_03_id:0,
            defense_npc_03_pos:0,
            user_hp_rate:0,
            user_mp_rate:0,
            monster_hp_rate:0,
            hp_recovery_rate:0,
            mp_recovery_rate:0
        },
        {
            thema_id:1,
            thema_name:'테마1',
            stage_id:7,
            stage_name:'스테이지 7',
            background_id:10,
            field_num:1,
            limit_time:150,
            clear_mode:2,
            clear_event_id:12,
            event_monster_id:8,
            player_pos:20,
            ally_01_id:0,
            ally_01_pos:0,
            ally_02_id:0,
            ally_02_pos:0,
            defense_npc_01_id:0,
            defense_npc_01_pos:0,
            defense_npc_02_id:0,
            defense_npc_02_pos:0,
            defense_npc_03_id:0,
            defense_npc_03_pos:0,
            user_hp_rate:0,
            user_mp_rate:0,
            monster_hp_rate:0,
            hp_recovery_rate:0,
            mp_recovery_rate:0
        },
        {
            thema_id:1,
            thema_name:'테마1',
            stage_id:8,
            stage_name:'스테이지 8',
            background_id:7,
            field_num:1,
            limit_time:80,
            clear_mode:1,
            clear_event_id:0,
            event_monster_id:0,
            player_pos:20,
            ally_01_id:0,
            ally_01_pos:0,
            ally_02_id:0,
            ally_02_pos:0,
            defense_npc_01_id:0,
            defense_npc_01_pos:0,
            defense_npc_02_id:0,
            defense_npc_02_pos:0,
            defense_npc_03_id:0,
            defense_npc_03_pos:0,
            user_hp_rate:0,
            user_mp_rate:0,
            monster_hp_rate:0,
            hp_recovery_rate:0,
            mp_recovery_rate:0
        },
        {
            thema_id:1,
            thema_name:'테마1',
            stage_id:9,
            stage_name:'스테이지 9',
            background_id:11,
            field_num:1,
            limit_time:80,
            clear_mode:1,
            clear_event_id:0,
            event_monster_id:0,
            player_pos:20,
            ally_01_id:0,
            ally_01_pos:0,
            ally_02_id:0,
            ally_02_pos:0,
            defense_npc_01_id:0,
            defense_npc_01_pos:0,
            defense_npc_02_id:0,
            defense_npc_02_pos:0,
            defense_npc_03_id:0,
            defense_npc_03_pos:0,
            user_hp_rate:0,
            user_mp_rate:0,
            monster_hp_rate:0,
            hp_recovery_rate:0,
            mp_recovery_rate:0
        },
        {
            thema_id:1,
            thema_name:'테마1',
            stage_id:10,
            stage_name:'스테이지 10',
            background_id:11,
            field_num:1,
            limit_time:80,
            clear_mode:1,
            clear_event_id:0,
            event_monster_id:0,
            player_pos:23,
            ally_01_id:0,
            ally_01_pos:0,
            ally_02_id:0,
            ally_02_pos:0,
            defense_npc_01_id:0,
            defense_npc_01_pos:0,
            defense_npc_02_id:0,
            defense_npc_02_pos:0,
            defense_npc_03_id:0,
            defense_npc_03_pos:0,
            user_hp_rate:0,
            user_mp_rate:0,
            monster_hp_rate:0,
            hp_recovery_rate:0,
            mp_recovery_rate:0
        },
        {
            thema_id:1,
            thema_name:'테마1',
            stage_id:11,
            stage_name:'스테이지 11',
            background_id:12,
            field_num:1,
            limit_time:80,
            clear_mode:1,
            clear_event_id:0,
            event_monster_id:0,
            player_pos:20,
            ally_01_id:0,
            ally_01_pos:0,
            ally_02_id:0,
            ally_02_pos:0,
            defense_npc_01_id:0,
            defense_npc_01_pos:0,
            defense_npc_02_id:0,
            defense_npc_02_pos:0,
            defense_npc_03_id:0,
            defense_npc_03_pos:0,
            user_hp_rate:0,
            user_mp_rate:0,
            monster_hp_rate:0,
            hp_recovery_rate:0,
            mp_recovery_rate:0
        },
        {
            thema_id:1,
            thema_name:'테마1',
            stage_id:12,
            stage_name:'스테이지 12',
            background_id:12,
            field_num:1,
            limit_time:150,
            clear_mode:2,
            clear_event_id:17,
            event_monster_id:14,
            player_pos:20,
            ally_01_id:0,
            ally_01_pos:0,
            ally_02_id:0,
            ally_02_pos:0,
            defense_npc_01_id:0,
            defense_npc_01_pos:0,
            defense_npc_02_id:0,
            defense_npc_02_pos:0,
            defense_npc_03_id:0,
            defense_npc_03_pos:0,
            user_hp_rate:0,
            user_mp_rate:0,
            monster_hp_rate:0,
            hp_recovery_rate:0,
            mp_recovery_rate:0
        },
        {
            thema_id:2,
            thema_name:'테마2',
            stage_id:1,
            stage_name:'스테이지 1',
            background_id:2,
            field_num:1,
            limit_time:' 80',
            clear_mode:1,
            clear_event_id:0,
            event_monster_id:0,
            player_pos:20,
            ally_01_id:0,
            ally_01_pos:0,
            ally_02_id:0,
            ally_02_pos:0,
            defense_npc_01_id:0,
            defense_npc_01_pos:0,
            defense_npc_02_id:0,
            defense_npc_02_pos:0,
            defense_npc_03_id:0,
            defense_npc_03_pos:0,
            user_hp_rate:0,
            user_mp_rate:0,
            monster_hp_rate:0,
            hp_recovery_rate:0,
            mp_recovery_rate:0
        },
        {
            thema_id:2,
            thema_name:'테마2',
            stage_id:2,
            stage_name:'스테이지 2',
            background_id:2,
            field_num:1,
            limit_time:150,
            clear_mode:2,
            clear_event_id:2,
            event_monster_id:3,
            player_pos:20,
            ally_01_id:0,
            ally_01_pos:0,
            ally_02_id:0,
            ally_02_pos:0,
            defense_npc_01_id:0,
            defense_npc_01_pos:0,
            defense_npc_02_id:0,
            defense_npc_02_pos:0,
            defense_npc_03_id:0,
            defense_npc_03_pos:0,
            user_hp_rate:0,
            user_mp_rate:0,
            monster_hp_rate:0,
            hp_recovery_rate:0,
            mp_recovery_rate:0
        },
        {
            thema_id:2,
            thema_name:'테마2',
            stage_id:3,
            stage_name:'스테이지 3',
            background_id:6,
            field_num:1,
            limit_time:150,
            clear_mode:2,
            clear_event_id:0,
            event_monster_id:0,
            player_pos:20,
            ally_01_id:0,
            ally_01_pos:0,
            ally_02_id:0,
            ally_02_pos:0,
            defense_npc_01_id:0,
            defense_npc_01_pos:0,
            defense_npc_02_id:0,
            defense_npc_02_pos:0,
            defense_npc_03_id:0,
            defense_npc_03_pos:0,
            user_hp_rate:0,
            user_mp_rate:0,
            monster_hp_rate:0,
            hp_recovery_rate:0,
            mp_recovery_rate:0
        },
        {
            thema_id:2,
            thema_name:'테마2',
            stage_id:4,
            stage_name:'스테이지 4',
            background_id:3,
            field_num:1,
            limit_time:80,
            clear_mode:1,
            clear_event_id:0,
            event_monster_id:0,
            player_pos:20,
            ally_01_id:0,
            ally_01_pos:0,
            ally_02_id:0,
            ally_02_pos:0,
            defense_npc_01_id:0,
            defense_npc_01_pos:0,
            defense_npc_02_id:0,
            defense_npc_02_pos:0,
            defense_npc_03_id:0,
            defense_npc_03_pos:0,
            user_hp_rate:0,
            user_mp_rate:0,
            monster_hp_rate:0,
            hp_recovery_rate:0,
            mp_recovery_rate:0
        },
        {
            thema_id:2,
            thema_name:'테마2',
            stage_id:5,
            stage_name:'스테이지 5',
            background_id:1,
            field_num:1,
            limit_time:150,
            clear_mode:2,
            clear_event_id:8,
            event_monster_id:2,
            player_pos:20,
            ally_01_id:0,
            ally_01_pos:0,
            ally_02_id:0,
            ally_02_pos:0,
            defense_npc_01_id:0,
            defense_npc_01_pos:0,
            defense_npc_02_id:0,
            defense_npc_02_pos:0,
            defense_npc_03_id:0,
            defense_npc_03_pos:0,
            user_hp_rate:0,
            user_mp_rate:0,
            monster_hp_rate:0,
            hp_recovery_rate:0,
            mp_recovery_rate:0
        },
        {
            thema_id:2,
            thema_name:'테마2',
            stage_id:6,
            stage_name:'스테이지 6',
            background_id:9,
            field_num:1,
            limit_time:80,
            clear_mode:1,
            clear_event_id:10,
            event_monster_id:9,
            player_pos:20,
            ally_01_id:0,
            ally_01_pos:0,
            ally_02_id:0,
            ally_02_pos:0,
            defense_npc_01_id:0,
            defense_npc_01_pos:0,
            defense_npc_02_id:0,
            defense_npc_02_pos:0,
            defense_npc_03_id:0,
            defense_npc_03_pos:0,
            user_hp_rate:0,
            user_mp_rate:0,
            monster_hp_rate:0,
            hp_recovery_rate:0,
            mp_recovery_rate:0
        },
        {
            thema_id:2,
            thema_name:'테마2',
            stage_id:7,
            stage_name:'스테이지 7',
            background_id:10,
            field_num:1,
            limit_time:150,
            clear_mode:2,
            clear_event_id:12,
            event_monster_id:8,
            player_pos:20,
            ally_01_id:0,
            ally_01_pos:0,
            ally_02_id:0,
            ally_02_pos:0,
            defense_npc_01_id:0,
            defense_npc_01_pos:0,
            defense_npc_02_id:0,
            defense_npc_02_pos:0,
            defense_npc_03_id:0,
            defense_npc_03_pos:0,
            user_hp_rate:0,
            user_mp_rate:0,
            monster_hp_rate:0,
            hp_recovery_rate:0,
            mp_recovery_rate:0
        },
        {
            thema_id:2,
            thema_name:'테마2',
            stage_id:8,
            stage_name:'스테이지 8',
            background_id:7,
            field_num:1,
            limit_time:80,
            clear_mode:1,
            clear_event_id:0,
            event_monster_id:0,
            player_pos:20,
            ally_01_id:0,
            ally_01_pos:0,
            ally_02_id:0,
            ally_02_pos:0,
            defense_npc_01_id:0,
            defense_npc_01_pos:0,
            defense_npc_02_id:0,
            defense_npc_02_pos:0,
            defense_npc_03_id:0,
            defense_npc_03_pos:0,
            user_hp_rate:0,
            user_mp_rate:0,
            monster_hp_rate:0,
            hp_recovery_rate:0,
            mp_recovery_rate:0
        },
        {
            thema_id:2,
            thema_name:'테마2',
            stage_id:9,
            stage_name:'스테이지 9',
            background_id:11,
            field_num:1,
            limit_time:80,
            clear_mode:1,
            clear_event_id:0,
            event_monster_id:0,
            player_pos:20,
            ally_01_id:0,
            ally_01_pos:0,
            ally_02_id:0,
            ally_02_pos:0,
            defense_npc_01_id:0,
            defense_npc_01_pos:0,
            defense_npc_02_id:0,
            defense_npc_02_pos:0,
            defense_npc_03_id:0,
            defense_npc_03_pos:0,
            user_hp_rate:0,
            user_mp_rate:0,
            monster_hp_rate:0,
            hp_recovery_rate:0,
            mp_recovery_rate:0
        },
        {
            thema_id:2,
            thema_name:'테마2',
            stage_id:10,
            stage_name:'스테이지 10',
            background_id:11,
            field_num:1,
            limit_time:80,
            clear_mode:1,
            clear_event_id:0,
            event_monster_id:0,
            player_pos:23,
            ally_01_id:0,
            ally_01_pos:0,
            ally_02_id:0,
            ally_02_pos:0,
            defense_npc_01_id:0,
            defense_npc_01_pos:0,
            defense_npc_02_id:0,
            defense_npc_02_pos:0,
            defense_npc_03_id:0,
            defense_npc_03_pos:0,
            user_hp_rate:0,
            user_mp_rate:0,
            monster_hp_rate:0,
            hp_recovery_rate:0,
            mp_recovery_rate:0
        },
        {
            thema_id:2,
            thema_name:'테마2',
            stage_id:11,
            stage_name:'스테이지 11',
            background_id:12,
            field_num:1,
            limit_time:80,
            clear_mode:1,
            clear_event_id:0,
            event_monster_id:0,
            player_pos:20,
            ally_01_id:0,
            ally_01_pos:0,
            ally_02_id:0,
            ally_02_pos:0,
            defense_npc_01_id:0,
            defense_npc_01_pos:0,
            defense_npc_02_id:0,
            defense_npc_02_pos:0,
            defense_npc_03_id:0,
            defense_npc_03_pos:0,
            user_hp_rate:0,
            user_mp_rate:0,
            monster_hp_rate:0,
            hp_recovery_rate:0,
            mp_recovery_rate:0
        },
        {
            thema_id:2,
            thema_name:'테마2',
            stage_id:12,
            stage_name:'스테이지 12',
            background_id:12,
            field_num:1,
            limit_time:150,
            clear_mode:2,
            clear_event_id:17,
            event_monster_id:14,
            player_pos:20,
            ally_01_id:0,
            ally_01_pos:0,
            ally_02_id:0,
            ally_02_pos:0,
            defense_npc_01_id:0,
            defense_npc_01_pos:0,
            defense_npc_02_id:0,
            defense_npc_02_pos:0,
            defense_npc_03_id:0,
            defense_npc_03_pos:0,
            user_hp_rate:0,
            user_mp_rate:0,
            monster_hp_rate:0,
            hp_recovery_rate:0,
            mp_recovery_rate:0
        },
        {
            thema_id:3,
            thema_name:'테마3',
            stage_id:1,
            stage_name:'스테이지 1',
            background_id:2,
            field_num:1,
            limit_time:' 80',
            clear_mode:1,
            clear_event_id:0,
            event_monster_id:0,
            player_pos:20,
            ally_01_id:0,
            ally_01_pos:0,
            ally_02_id:0,
            ally_02_pos:0,
            defense_npc_01_id:0,
            defense_npc_01_pos:0,
            defense_npc_02_id:0,
            defense_npc_02_pos:0,
            defense_npc_03_id:0,
            defense_npc_03_pos:0,
            user_hp_rate:0,
            user_mp_rate:0,
            monster_hp_rate:0,
            hp_recovery_rate:0,
            mp_recovery_rate:0
        },
        {
            thema_id:3,
            thema_name:'테마3',
            stage_id:2,
            stage_name:'스테이지 2',
            background_id:2,
            field_num:1,
            limit_time:150,
            clear_mode:2,
            clear_event_id:2,
            event_monster_id:3,
            player_pos:20,
            ally_01_id:0,
            ally_01_pos:0,
            ally_02_id:0,
            ally_02_pos:0,
            defense_npc_01_id:0,
            defense_npc_01_pos:0,
            defense_npc_02_id:0,
            defense_npc_02_pos:0,
            defense_npc_03_id:0,
            defense_npc_03_pos:0,
            user_hp_rate:0,
            user_mp_rate:0,
            monster_hp_rate:0,
            hp_recovery_rate:0,
            mp_recovery_rate:0
        },
        {
            thema_id:3,
            thema_name:'테마3',
            stage_id:3,
            stage_name:'스테이지 3',
            background_id:6,
            field_num:1,
            limit_time:150,
            clear_mode:2,
            clear_event_id:0,
            event_monster_id:0,
            player_pos:20,
            ally_01_id:0,
            ally_01_pos:0,
            ally_02_id:0,
            ally_02_pos:0,
            defense_npc_01_id:0,
            defense_npc_01_pos:0,
            defense_npc_02_id:0,
            defense_npc_02_pos:0,
            defense_npc_03_id:0,
            defense_npc_03_pos:0,
            user_hp_rate:0,
            user_mp_rate:0,
            monster_hp_rate:0,
            hp_recovery_rate:0,
            mp_recovery_rate:0
        },
        {
            thema_id:3,
            thema_name:'테마3',
            stage_id:4,
            stage_name:'스테이지 4',
            background_id:3,
            field_num:1,
            limit_time:80,
            clear_mode:1,
            clear_event_id:0,
            event_monster_id:0,
            player_pos:20,
            ally_01_id:0,
            ally_01_pos:0,
            ally_02_id:0,
            ally_02_pos:0,
            defense_npc_01_id:0,
            defense_npc_01_pos:0,
            defense_npc_02_id:0,
            defense_npc_02_pos:0,
            defense_npc_03_id:0,
            defense_npc_03_pos:0,
            user_hp_rate:0,
            user_mp_rate:0,
            monster_hp_rate:0,
            hp_recovery_rate:0,
            mp_recovery_rate:0
        },
        {
            thema_id:3,
            thema_name:'테마3',
            stage_id:5,
            stage_name:'스테이지 5',
            background_id:1,
            field_num:1,
            limit_time:150,
            clear_mode:2,
            clear_event_id:8,
            event_monster_id:2,
            player_pos:20,
            ally_01_id:0,
            ally_01_pos:0,
            ally_02_id:0,
            ally_02_pos:0,
            defense_npc_01_id:0,
            defense_npc_01_pos:0,
            defense_npc_02_id:0,
            defense_npc_02_pos:0,
            defense_npc_03_id:0,
            defense_npc_03_pos:0,
            user_hp_rate:0,
            user_mp_rate:0,
            monster_hp_rate:0,
            hp_recovery_rate:0,
            mp_recovery_rate:0
        },
        {
            thema_id:3,
            thema_name:'테마3',
            stage_id:6,
            stage_name:'스테이지 6',
            background_id:9,
            field_num:1,
            limit_time:80,
            clear_mode:1,
            clear_event_id:10,
            event_monster_id:9,
            player_pos:20,
            ally_01_id:0,
            ally_01_pos:0,
            ally_02_id:0,
            ally_02_pos:0,
            defense_npc_01_id:0,
            defense_npc_01_pos:0,
            defense_npc_02_id:0,
            defense_npc_02_pos:0,
            defense_npc_03_id:0,
            defense_npc_03_pos:0,
            user_hp_rate:0,
            user_mp_rate:0,
            monster_hp_rate:0,
            hp_recovery_rate:0,
            mp_recovery_rate:0
        },
        {
            thema_id:3,
            thema_name:'테마3',
            stage_id:7,
            stage_name:'스테이지 7',
            background_id:10,
            field_num:1,
            limit_time:150,
            clear_mode:2,
            clear_event_id:12,
            event_monster_id:8,
            player_pos:20,
            ally_01_id:0,
            ally_01_pos:0,
            ally_02_id:0,
            ally_02_pos:0,
            defense_npc_01_id:0,
            defense_npc_01_pos:0,
            defense_npc_02_id:0,
            defense_npc_02_pos:0,
            defense_npc_03_id:0,
            defense_npc_03_pos:0,
            user_hp_rate:0,
            user_mp_rate:0,
            monster_hp_rate:0,
            hp_recovery_rate:0,
            mp_recovery_rate:0
        },
        {
            thema_id:3,
            thema_name:'테마3',
            stage_id:8,
            stage_name:'스테이지 8',
            background_id:7,
            field_num:1,
            limit_time:80,
            clear_mode:1,
            clear_event_id:0,
            event_monster_id:0,
            player_pos:20,
            ally_01_id:0,
            ally_01_pos:0,
            ally_02_id:0,
            ally_02_pos:0,
            defense_npc_01_id:0,
            defense_npc_01_pos:0,
            defense_npc_02_id:0,
            defense_npc_02_pos:0,
            defense_npc_03_id:0,
            defense_npc_03_pos:0,
            user_hp_rate:0,
            user_mp_rate:0,
            monster_hp_rate:0,
            hp_recovery_rate:0,
            mp_recovery_rate:0
        },
        {
            thema_id:3,
            thema_name:'테마3',
            stage_id:9,
            stage_name:'스테이지 9',
            background_id:11,
            field_num:1,
            limit_time:80,
            clear_mode:1,
            clear_event_id:0,
            event_monster_id:0,
            player_pos:20,
            ally_01_id:0,
            ally_01_pos:0,
            ally_02_id:0,
            ally_02_pos:0,
            defense_npc_01_id:0,
            defense_npc_01_pos:0,
            defense_npc_02_id:0,
            defense_npc_02_pos:0,
            defense_npc_03_id:0,
            defense_npc_03_pos:0,
            user_hp_rate:0,
            user_mp_rate:0,
            monster_hp_rate:0,
            hp_recovery_rate:0,
            mp_recovery_rate:0
        },
        {
            thema_id:3,
            thema_name:'테마3',
            stage_id:10,
            stage_name:'스테이지 10',
            background_id:11,
            field_num:1,
            limit_time:80,
            clear_mode:1,
            clear_event_id:0,
            event_monster_id:0,
            player_pos:23,
            ally_01_id:0,
            ally_01_pos:0,
            ally_02_id:0,
            ally_02_pos:0,
            defense_npc_01_id:0,
            defense_npc_01_pos:0,
            defense_npc_02_id:0,
            defense_npc_02_pos:0,
            defense_npc_03_id:0,
            defense_npc_03_pos:0,
            user_hp_rate:0,
            user_mp_rate:0,
            monster_hp_rate:0,
            hp_recovery_rate:0,
            mp_recovery_rate:0
        },
        {
            thema_id:3,
            thema_name:'테마3',
            stage_id:11,
            stage_name:'스테이지 11',
            background_id:12,
            field_num:1,
            limit_time:80,
            clear_mode:1,
            clear_event_id:0,
            event_monster_id:0,
            player_pos:20,
            ally_01_id:0,
            ally_01_pos:0,
            ally_02_id:0,
            ally_02_pos:0,
            defense_npc_01_id:0,
            defense_npc_01_pos:0,
            defense_npc_02_id:0,
            defense_npc_02_pos:0,
            defense_npc_03_id:0,
            defense_npc_03_pos:0,
            user_hp_rate:0,
            user_mp_rate:0,
            monster_hp_rate:0,
            hp_recovery_rate:0,
            mp_recovery_rate:0
        },
        {
            thema_id:3,
            thema_name:'테마3',
            stage_id:12,
            stage_name:'스테이지 12',
            background_id:12,
            field_num:1,
            limit_time:150,
            clear_mode:2,
            clear_event_id:17,
            event_monster_id:14,
            player_pos:20,
            ally_01_id:0,
            ally_01_pos:0,
            ally_02_id:0,
            ally_02_pos:0,
            defense_npc_01_id:0,
            defense_npc_01_pos:0,
            defense_npc_02_id:0,
            defense_npc_02_pos:0,
            defense_npc_03_id:0,
            defense_npc_03_pos:0,
            user_hp_rate:0,
            user_mp_rate:0,
            monster_hp_rate:0,
            hp_recovery_rate:0,
            mp_recovery_rate:0
        }
    ]