[
    {"name":"stage 1",
     "explain":"stage 1\n\n189년 동탁의 낙양에\n입성하여 군권을 잡고,\n조조가 헌제를 받아들이고\n유비는 서주를 차지, \n소패왕 손책이 손견의 유지를 이어가는데...",
     "index":1
    },
    {"name":"stage 2",
     "explain":"stage 2\n\n201년 조조가 원소와\n하북의 패권을 다투며\n새 시대의 개막이 열리는데..",
     "index":2
    }
]