%YAML 1.1
%TAG !u! tag:unity3d.com,2011:
--- !u!114 &11400000
MonoBehaviour:
  m_ObjectHideFlags: 0
  m_PrefabParentObject: {fileID: 0}
  m_PrefabInternal: {fileID: 0}
  m_GameObject: {fileID: 0}
  m_Enabled: 1
  m_EditorHideFlags: 0
  m_Script: {fileID: 11500000, guid: 1bdfe79e336474848808de1467defd7f, type: 3}
  m_Name: GBS003
  m_EditorClassIdentifier: 
  spriteCollection: {fileID: 11400000, guid: d114af68a9b84401b85d0cb2cc32c03c, type: 2}
  skeletonJSON: {fileID: 4900000, guid: f63774792819d884ea0405a397b9470b, type: 3}
  scale: 1
  fromAnimation: []
  toAnimation: []
  duration: []
  defaultMix: 0
