%YAML 1.1
%TAG !u! tag:unity3d.com,2011:
--- !u!129 &1
PlayerSettings:
  m_ObjectHideFlags: 0
  serializedVersion: 3
  AndroidProfiler: 0
  defaultScreenOrientation: 3
  targetDevice: 2
  targetGlesGraphics: 1
  targetResolution: 0
  accelerometerFrequency: 60
  companyName: BNCEnterprise
  productName: Kingdom
  defaultCursor: {fileID: 0}
  cursorHotspot: {x: 0, y: 0}
  defaultScreenWidth: 1024
  defaultScreenHeight: 768
  defaultScreenWidthWeb: 960
  defaultScreenHeightWeb: 600
  m_RenderingPath: 1
  m_MobileRenderingPath: 1
  m_ActiveColorSpace: 0
  m_MTRendering: 1
  m_MobileMTRendering: 0
  m_UseDX11: 1
  m_Stereoscopic3D: 0
  iosShowActivityIndicatorOnLoading: -1
  androidShowActivityIndicatorOnLoading: -1
  displayResolutionDialog: 1
  allowedAutorotateToPortrait: 0
  allowedAutorotateToPortraitUpsideDown: 0
  allowedAutorotateToLandscapeRight: 1
  allowedAutorotateToLandscapeLeft: 1
  useOSAutorotation: 1
  use32BitDisplayBuffer: 1
  use24BitDepthBuffer: 1
  defaultIsFullScreen: 1
  defaultIsNativeResolution: 1
  runInBackground: 1
  captureSingleScreen: 0
  Override IPod Music: 0
  Prepare IOS For Recording: 0
  enableHWStatistics: 1
  usePlayerLog: 1
  stripPhysics: 0
  forceSingleInstance: 0
  resizableWindow: 0
  useMacAppStoreValidation: 0
  gpuSkinning: 0
  xboxPIXTextureCapture: 0
  xboxEnableAvatar: 0
  xboxEnableKinect: 0
  xboxEnableKinectAutoTracking: 0
  xboxEnableFitness: 0
  macFullscreenMode: 2
  xboxSpeechDB: 0
  xboxEnableHeadOrientation: 0
  xboxEnableGuest: 0
  videoMemoryForVertexBuffers: 0
  m_SupportedAspectRatios:
    4:3: 1
    5:4: 1
    16:10: 1
    16:9: 1
    Others: 1
  iPhoneBundleIdentifier: com.bncenterprise.kingdom
  metroEnableIndependentInputSource: 0
  metroEnableLowLatencyPresentationAPI: 0
  productGUID: 32fe9c2421c444fc6bc34330371450f4
  iPhoneBundleVersion: 1.0
  AndroidBundleVersionCode: 1
  AndroidMinSdkVersion: 9
  AndroidPreferredInstallLocation: 1
  aotOptions: 
  apiCompatibilityLevel: 2
  iPhoneStrippingLevel: 0
  iPhoneScriptCallOptimization: 0
  ForceInternetPermission: 0
  ForceSDCardPermission: 0
  CreateWallpaper: 0
  APKExpansionFiles: 0
  StripUnusedMeshComponents: 0
  iPhoneSdkVersion: 988
  iPhoneTargetOSVersion: 16
  uIPrerenderedIcon: 0
  uIRequiresPersistentWiFi: 0
  uIStatusBarHidden: 1
  uIExitOnSuspend: 0
  uIStatusBarStyle: 0
  iPhoneSplashScreen: {fileID: 0}
  iPhoneHighResSplashScreen: {fileID: 0}
  iPhoneTallHighResSplashScreen: {fileID: 0}
  iPadPortraitSplashScreen: {fileID: 0}
  iPadHighResPortraitSplashScreen: {fileID: 0}
  iPadLandscapeSplashScreen: {fileID: 0}
  iPadHighResLandscapeSplashScreen: {fileID: 0}
  AndroidTargetDevice: 0
  AndroidSplashScreenScale: 0
  AndroidKeystoreName: 
  AndroidKeyaliasName: 
  resolutionDialogBanner: {fileID: 0}
  m_BuildTargetIcons:
  - m_BuildTarget: 
    m_Icons:
    - m_Icon: {fileID: 2800000, guid: 828c3e597e1954245be4ffbb59f52750, type: 3}
      m_Size: 128
  m_BuildTargetBatching:
  - m_BuildTarget: Android
    m_StaticBatching: 1
    m_DynamicBatching: 1
  webPlayerTemplate: APPLICATION:Default
  m_TemplateCustomTags: {}
  XboxTitleId: 
  XboxImageXexPath: 
  XboxSpaPath: 
  XboxGenerateSpa: 0
  XboxDeployKinectResources: 0
  XboxSplashScreen: {fileID: 0}
  xboxEnableSpeech: 0
  xboxAdditionalTitleMemorySize: 0
  xboxDeployKinectHeadOrientation: 0
  xboxDeployKinectHeadPosition: 0
  ps3TitleConfigPath: 
  ps3DLCConfigPath: 
  ps3ThumbnailPath: 
  ps3BackgroundPath: 
  ps3SoundPath: 
  ps3TrophyCommId: 
  ps3NpCommunicationPassphrase: 
  ps3TrophyPackagePath: 
  ps3BootCheckMaxSaveGameSizeKB: 128
  ps3TrophyCommSig: 
  ps3SaveGameSlots: 1
  ps3TrialMode: 0
  psp2Splashimage: {fileID: 0}
  psp2LiveAreaGate: {fileID: 0}
  psp2LiveAreaBackround: {fileID: 0}
  psp2NPTrophyPackPath: 
  psp2NPCommsID: 
  psp2NPCommsPassphrase: 
  psp2NPCommsSig: 
  psp2ParamSfxPath: 
  psp2PackagePassword: 
  psp2DLCConfigPath: 
  psp2ThumbnailPath: 
  psp2BackgroundPath: 
  psp2SoundPath: 
  psp2TrophyCommId: 
  psp2TrophyPackagePath: 
  psp2PackagedResourcesPath: 
  flashStrippingLevel: 2
  spritePackerPolicy: 
  scriptingDefineSymbols: {}
  metroPackageName: Source
  metroPackageLogo: 
  metroPackageLogo140: 
  metroPackageLogo180: 
  metroPackageVersion: 
  metroCertificatePath: 
  metroCertificatePassword: 
  metroCertificateSubject: 
  metroCertificateIssuer: 
  metroCertificateNotAfter: 0000000000000000
  metroApplicationDescription: Source
  metroTileLogo80: 
  metroTileLogo: 
  metroTileLogo140: 
  metroTileLogo180: 
  metroTileWideLogo80: 
  metroTileWideLogo: 
  metroTileWideLogo140: 
  metroTileWideLogo180: 
  metroTileSmallLogo80: 
  metroTileSmallLogo: 
  metroTileSmallLogo140: 
  metroTileSmallLogo180: 
  metroSmallTile80: 
  metroSmallTile: 
  metroSmallTile140: 
  metroSmallTile180: 
  metroLargeTile80: 
  metroLargeTile: 
  metroLargeTile140: 
  metroLargeTile180: 
  metroTileShortName: 
  metroCommandLineArgsFile: 
  metroTileShowName: 0
  metroMediumTileShowName: 0
  metroLargeTileShowName: 0
  metroWideTileShowName: 0
  metroDefaultTileSize: 1
  metroTileForegroundText: 1
  metroTileBackgroundColor: {r: 0, g: 0, b: 0, a: 1}
  metroSplashScreenImage: 
  metroSplashScreenImage140: 
  metroSplashScreenImage180: 
  metroSplashScreenBackgroundColor: {r: 0, g: 0, b: 0, a: 1}
  metroSplashScreenUseBackgroundColor: 0
  metroCapabilities: {}
  metroUnprocessedPlugins: []
  metroCompilationOverrides: 1
  blackberryDeviceAddress: 
  blackberryDevicePassword: 
  blackberryTokenPath: 
  blackberryTokenExires: 
  blackberryTokenAuthor: 
  blackberryTokenAuthorId: 
  blackberryAuthorId: 
  blackberryCskPassword: 
  blackberrySaveLogPath: 
  blackberryAuthorIdOveride: 0
  blackberrySharedPermissions: 0
  blackberryCameraPermissions: 0
  blackberryGPSPermissions: 0
  blackberryDeviceIDPermissions: 0
  blackberryMicrophonePermissions: 0
  blackberryGamepadSupport: 0
  blackberryBuildId: 0
  blackberryLandscapeSplashScreen: {fileID: 0}
  blackberryPortraitSplashScreen: {fileID: 0}
  blackberrySquareSplashScreen: {fileID: 0}
  tizenProductDescription: 
  tizenProductURL: 
  tizenCertificatePath: 
  tizenCertificatePassword: 
  tizenGPSPermissions: 0
  tizenMicrophonePermissions: 0
  stvDeviceAddress: 
  firstStreamedLevelWithResources: 0
  unityRebuildLibraryVersion: 9
  unityForwardCompatibleVersion: 39
  unityStandardAssetsVersion: 0
